code/Add_Sub_C2/simulation/qsim/Add_Sub_C2.msim.vcd
$comment
	File created using the following command:
		vcd file Add_Sub_C2.msim.vcd -direction
$end
$date
	Tue Aug 31 21:24:46 2021
$end
$version
	ModelSim Version 2020.1
$end
$timescale
	1ps
$end

$scope module Add_Sub_C2_vlg_vec_tst $end
$var reg 4 ! A [3:0] $end
$var reg 4 " B [3:0] $end
$var reg 1 # IS_ADD $end
$var wire 1 $ C_OUT $end
$var wire 1 % NEGATIVE $end
$var wire 1 & OVERFLOW $end
$var wire 1 ' RESULT [3] $end
$var wire 1 ( RESULT [2] $end
$var wire 1 ) RESULT [1] $end
$var wire 1 * RESULT [0] $end
$var wire 1 + ZERO $end

$scope module i1 $end
$var wire 1 , gnd $end
$var wire 1 - vcc $end
$var wire 1 . unknown $end
$var tri1 1 / devclrn $end
$var tri1 1 0 devpor $end
$var tri1 1 1 devoe $end
$var wire 1 2 ZERO~output_o $end
$var wire 1 3 NEGATIVE~output_o $end
$var wire 1 4 OVERFLOW~output_o $end
$var wire 1 5 C_OUT~output_o $end
$var wire 1 6 RESULT[0]~output_o $end
$var wire 1 7 RESULT[1]~output_o $end
$var wire 1 8 RESULT[2]~output_o $end
$var wire 1 9 RESULT[3]~output_o $end
$var wire 1 : A[3]~input_o $end
$var wire 1 ; B[1]~input_o $end
$var wire 1 < A[0]~input_o $end
$var wire 1 = IS_ADD~input_o $end
$var wire 1 > B[0]~input_o $end
$var wire 1 ? Full_Adder|a0|C_out~0_combout $end
$var wire 1 @ A[1]~input_o $end
$var wire 1 A Full_Adder|a1|C_out~0_combout $end
$var wire 1 B B[2]~input_o $end
$var wire 1 C A[2]~input_o $end
$var wire 1 D Full_Adder|a2|C_out~0_combout $end
$var wire 1 E B[3]~input_o $end
$var wire 1 F Full_Adder|a3|S~0_combout $end
$var wire 1 G Full_Adder|a2|S~0_combout $end
$var wire 1 H Full_Adder|a1|S~combout $end
$var wire 1 I Full_Adder|a3|C_out~0_combout $end
$var wire 1 J ZERO~0_combout $end
$var wire 1 K ZERO~1_combout $end
$var wire 1 L NEGATIVE~0_combout $end
$var wire 1 M over~2_combout $end
$var wire 1 N C_OUT~2_combout $end
$var wire 1 O Full_Adder|a0|S~0_combout $end
$upscope $end
$upscope $end
$enddefinitions $end
#0
$dumpvars
b1000 !
b1000 "
0#
1$
0%
0&
0*
0)
0(
0'
1+
0,
1-
x.
1/
10
11
12
03
04
15
06
07
08
09
1:
0;
0<
0=
0>
1?
0@
1A
0B
0C
1D
1E
1F
1G
1H
1I
0J
0K
1L
0M
1N
0O
$end
#5000
1#
1=
0H
0G
0F
0D
0A
0?
0N
05
19
18
17
1K
1J
1F
1G
1H
1)
1(
1'
0$
1M
14
07
08
09
02
0+
0'
0(
0)
1&
#10000
b1001 "
0#
1>
0=
0I
0H
0G
0F
1O
0M
04
16
19
18
17
0L
1)
1(
1'
1*
0&
13
1%
#15000
1#
1=
1I
1H
1G
1F
1M
14
09
08
07
1L
0)
0(
0'
1&
03
0%
#20000
b1011 "
b1010 "
0#
0>
1;
0=
1?
0I
0G
0F
0O
0M
04
06
19
18
0H
0L
0J
1(
1'
0*
0&
13
17
1)
1%
#25000
1#
1=
1I
1H
1G
1F
1A
0?
1M
14
09
08
07
1L
1J
0K
0G
0H
0A
0)
0(
0'
1&
17
18
12
03
1K
1G
0%
1+
1(
1)
08
02
0+
0(
#30000
b1011 "
0#
1>
0=
0I
1H
0G
0F
1O
0M
04
16
19
18
07
0L
0)
1(
1'
1*
0&
13
1%
#35000
1#
1=
1I
0H
1G
1F
1M
14
09
08
17
1L
1)
0(
0'
1&
03
0%
#40000
b1111 "
b1101 "
b1100 "
0#
0>
0;
1B
0=
1?
0I
0F
0O
0M
04
06
19
1H
1A
0L
0J
1'
0*
0&
13
07
0G
0)
1%
18
1(
#45000
1#
1=
1I
0H
1G
1F
1D
0A
0?
1M
14
09
08
17
1L
0F
0G
0D
1H
1)
0(
0'
1&
0M
04
07
18
19
03
1J
1F
0%
1'
1(
0)
0&
1M
14
09
0'
1&
#50000
b1101 "
0#
1>
0=
0I
0H
1G
0F
1O
0M
04
16
19
08
17
0L
1)
0(
1'
1*
0&
13
1%
#55000
1#
1=
1I
1H
0G
1F
1M
14
09
18
07
1L
0)
1(
0'
1&
03
0%
#60000
b1111 "
b1110 "
0#
0>
1;
0=
1?
0I
1G
0F
0O
0M
04
06
19
08
0H
0L
0J
0(
1'
0*
0&
13
17
1)
1%
#65000
1#
1=
1I
1H
0G
1F
1A
0?
1M
14
09
18
07
1L
1J
1G
1D
0H
0A
0)
1(
0'
1&
17
08
03
0J
0F
0G
0D
0%
0(
1)
0M
04
18
19
1J
1F
1'
1(
0&
1M
14
09
0'
1&
#70000
b1111 "
0#
1>
0=
0I
1H
1G
0F
1O
0M
04
16
19
08
07
0L
0)
0(
1'
1*
0&
13
1%
#75000
1#
1=
1I
0H
0G
1F
1M
14
09
18
17
1L
1)
1(
0'
1&
03
0%
#80000
b111 "
b11 "
b1 "
b0 "
0#
0>
0;
0B
0E
0=
1?
0O
1N
15
06
1H
1A
0*
1$
07
1G
1D
0)
08
0J
0F
0(
0M
04
19
0L
1'
0&
13
1%
#85000
1#
1=
0H
0G
1F
0D
0A
0?
0N
05
09
18
17
1L
1J
0I
0F
1G
1H
1)
1(
0'
0$
1N
15
07
08
19
03
0L
0J
0%
1'
0(
0)
1$
13
1%
#90000
b1 "
0#
1>
0=
1J
1I
0H
0G
1F
1O
1M
14
16
09
18
17
1L
1)
1(
0'
1*
1&
03
0%
#95000
1#
1=
0I
1H
1G
0F
0M
04
19
08
07
0L
0)
0(
1'
0&
13
1%
#100000
b11 "
b10 "
0#
0>
1;
0=
0J
1?
1I
0G
1F
0O
1M
14
06
09
18
0H
1L
1J
1(
0'
0*
1&
03
17
1)
0%
#105000
1#
1=
0I
1H
1G
0F
1A
0?
0M
04
19
08
07
0L
0J
0G
0H
0A
0)
0(
1'
0&
17
18
13
1G
1%
1(
1)
08
0(
#110000
b11 "
0#
1>
0=
1J
1I
1H
0G
1F
1O
1M
14
16
09
18
07
1L
0)
1(
0'
1*
1&
03
0%
#115000
1#
1=
0I
0H
1G
0F
0M
04
19
08
17
0L
1)
0(
1'
0&
13
1%
#120000
b111 "
b101 "
b100 "
0#
0>
0;
1B
0=
0J
1?
1I
1F
0O
1M
14
06
09
1H
1A
1L
1J
0'
0*
1&
03
07
0G
0)
0%
18
1(
#125000
1#
1=
0I
0H
1G
0F
1D
0A
0?
0M
04
19
08
17
1I
1F
0G
0D
1H
1)
0(
1'
0&
0N
05
07
18
09
0I
0F
0'
1(
0)
0$
1N
15
19
0L
0J
1'
1$
13
1%
#130000
b101 "
0#
1>
0=
1J
1I
0H
1G
1F
1O
1M
14
16
09
08
17
1L
1)
0(
0'
1*
1&
03
0%
#135000
1#
1=
0I
1H
0G
0F
0M
04
19
18
07
0L
0)
1(
1'
0&
13
1%
#140000
b111 "
b110 "
0#
0>
1;
0=
0J
1?
1I
1G
1F
0O
1M
14
06
09
08
0K
0H
1L
1J
0(
0'
0*
1&
03
17
12
1K
1+
1)
0%
02
0+
#145000
1#
1=
0I
1H
0G
0F
1A
0?
0M
04
19
18
07
0L
0J
1G
1D
0H
0A
0)
1(
1'
0&
17
08
13
1L
1J
1I
1F
0G
0D
1%
0(
1)
0N
05
18
09
03
0I
0F
0%
0'
1(
0$
1N
15
19
0L
0J
1'
1$
13
1%
#150000
b111 "
0#
1>
0=
1J
1I
1H
1G
1F
1O
1M
14
16
09
08
07
1L
0)
0(
0'
1*
1&
03
0%
#155000
1#
1=
0I
0H
0G
0F
0M
04
19
18
17
0L
1)
1(
1'
0&
13
1%
#160000
b1111 "
b1011 "
b1001 "
b1000 "
0#
0>
0;
0B
1E
0=
0J
1?
0O
0N
05
06
1H
1A
0*
0$
07
1G
1D
0)
08
1L
1J
1I
1F
0(
1N
15
09
03
0J
0%
0'
1$
0K
12
1+
#165000
1#
1=
0H
0G
0F
0D
0A
0?
0N
05
19
18
17
1K
1J
1F
1G
1H
1)
1(
1'
0$
1M
14
07
08
09
02
0+
0'
0(
0)
1&
#170000
b1001 "
0#
1>
0=
0I
0H
0G
0F
1O
0M
04
16
19
18
17
0L
1)
1(
1'
1*
0&
13
1%
#175000
1#
1=
1I
1H
1G
1F
1M
14
09
08
07
1L
0)
0(
0'
1&
03
0%
#180000
b1011 "
b1010 "
0#
0>
1;
0=
1?
0I
0G
0F
0O
0M
04
06
19
18
0H
0L
0J
1(
1'
0*
0&
13
17
1)
1%
#185000
1#
1=
1I
1H
1G
1F
1A
0?
1M
14
09
08
07
1L
1J
0K
0G
0H
0A
0)
0(
0'
1&
17
18
12
03
1K
1G
0%
1+
1(
1)
08
02
0+
0(
#190000
b1011 "
0#
1>
0=
0I
1H
0G
0F
1O
0M
04
16
19
18
07
0L
0)
1(
1'
1*
0&
13
1%
#195000
1#
1=
1I
0H
1G
1F
1M
14
09
08
17
1L
1)
0(
0'
1&
03
0%
#200000
b1111 "
b1101 "
b1100 "
0#
0>
0;
1B
0=
1?
0I
0F
0O
0M
04
06
19
1H
1A
0L
0J
1'
0*
0&
13
07
0G
0)
1%
18
1(
#205000
1#
1=
1I
0H
1G
1F
1D
0A
0?
1M
14
09
08
17
1L
0F
0G
0D
1H
1)
0(
0'
1&
0M
04
07
18
19
03
1J
1F
0%
1'
1(
0)
0&
1M
14
09
0'
1&
#210000
b1101 "
0#
1>
0=
0I
0H
1G
0F
1O
0M
04
16
19
08
17
0L
1)
0(
1'
1*
0&
13
1%
#215000
1#
1=
1I
1H
0G
1F
1M
14
09
18
07
1L
0)
1(
0'
1&
03
0%
#220000
b1111 "
b1110 "
0#
0>
1;
0=
1?
0I
1G
0F
0O
0M
04
06
19
08
0H
0L
0J
0(
1'
0*
0&
13
17
1)
1%
#225000
1#
1=
1I
1H
0G
1F
1A
0?
1M
14
09
18
07
1L
1J
1G
1D
0H
0A
0)
1(
0'
1&
17
08
03
0J
0F
0G
0D
0%
0(
1)
0M
04
18
19
1J
1F
1'
1(
0&
1M
14
09
0'
1&
#230000
b1111 "
0#
1>
0=
0I
1H
1G
0F
1O
0M
04
16
19
08
07
0L
0)
0(
1'
1*
0&
13
1%
#235000
1#
1=
1I
0H
0G
1F
1M
14
09
18
17
1L
1)
1(
0'
1&
03
0%
#240000
b111 "
b11 "
b1 "
b0 "
0#
0>
0;
0B
0E
0=
1?
0O
1N
15
06
1H
1A
0*
1$
07
1G
1D
0)
08
0J
0F
0(
0M
04
19
0L
1'
0&
13
1%
#245000
1#
1=
0H
0G
1F
0D
0A
0?
0N
05
09
18
17
1L
1J
0I
0F
1G
1H
1)
1(
0'
0$
1N
15
07
08
19
03
0L
0J
0%
1'
0(
0)
1$
13
1%
#250000
b1 "
0#
1>
0=
1J
1I
0H
0G
1F
1O
1M
14
16
09
18
17
1L
1)
1(
0'
1*
1&
03
0%
#255000
1#
1=
0I
1H
1G
0F
0M
04
19
08
07
0L
0)
0(
1'
0&
13
1%
#260000
b11 "
b10 "
0#
0>
1;
0=
0J
1?
1I
0G
1F
0O
1M
14
06
09
18
0H
1L
1J
1(
0'
0*
1&
03
17
1)
0%
#265000
1#
1=
0I
1H
1G
0F
1A
0?
0M
04
19
08
07
0L
0J
0G
0H
0A
0)
0(
1'
0&
17
18
13
1G
1%
1(
1)
08
0(
#270000
b11 "
0#
1>
0=
1J
1I
1H
0G
1F
1O
1M
14
16
09
18
07
1L
0)
1(
0'
1*
1&
03
0%
#275000
1#
1=
0I
0H
1G
0F
0M
04
19
08
17
0L
1)
0(
1'
0&
13
1%
#280000
b111 "
b101 "
b100 "
0#
0>
0;
1B
0=
0J
1?
1I
1F
0O
1M
14
06
09
1H
1A
1L
1J
0'
0*
1&
03
07
0G
0)
0%
18
1(
#285000
1#
1=
0I
0H
1G
0F
1D
0A
0?
0M
04
19
08
17
1I
1F
0G
0D
1H
1)
0(
1'
0&
0N
05
07
18
09
0I
0F
0'
1(
0)
0$
1N
15
19
0L
0J
1'
1$
13
1%
#290000
b101 "
0#
1>
0=
1J
1I
0H
1G
1F
1O
1M
14
16
09
08
17
1L
1)
0(
0'
1*
1&
03
0%
#295000
1#
1=
0I
1H
0G
0F
0M
04
19
18
07
0L
0)
1(
1'
0&
13
1%
#300000
b111 "
b110 "
0#
0>
1;
0=
0J
1?
1I
1G
1F
0O
1M
14
06
09
08
0K
0H
1L
1J
0(
0'
0*
1&
03
17
12
1K
1+
1)
0%
02
0+
#305000
1#
1=
0I
1H
0G
0F
1A
0?
0M
04
19
18
07
0L
0J
1G
1D
0H
0A
0)
1(
1'
0&
17
08
13
1L
1J
1I
1F
0G
0D
1%
0(
1)
0N
05
18
09
03
0I
0F
0%
0'
1(
0$
1N
15
19
0L
0J
1'
1$
13
1%
#310000
b111 "
0#
1>
0=
1J
1I
1H
1G
1F
1O
1M
14
16
09
08
07
1L
0)
0(
0'
1*
1&
03
0%
#315000
1#
1=
0I
0H
0G
0F
0M
04
19
18
17
0L
1)
1(
1'
0&
13
1%
#320000
b1001 !
b1111 "
b1011 "
b1001 "
b1000 "
0#
0>
0;
0B
1E
1<
0=
1?
0N
05
1H
1A
0$
07
1G
1D
0)
08
1L
1I
1F
0(
1N
15
09
03
0%
0'
1$
#325000
1#
1=
0H
0G
0F
0D
0A
0?
0N
05
19
18
17
1F
1G
1H
1)
1(
1'
0$
1M
14
07
08
09
0'
0(
0)
1&
#330000
b1001 "
0#
1>
0=
1?
0I
0H
0G
0F
0O
0M
04
06
19
18
17
1H
1A
0L
0J
1)
1(
1'
0*
0&
13
07
1G
1D
0)
1%
08
1L
1J
1I
1F
0(
1N
15
09
03
0J
0%
0'
1$
0K
12
1+
#335000
1#
1=
0H
0G
0F
0D
0A
0N
05
19
18
17
1K
1J
1F
1G
1)
1(
1'
0$
1M
14
08
09
02
0+
0'
0(
1&
#340000
b1011 "
b1010 "
0#
0>
1;
0=
0I
0G
0F
1O
0M
04
16
19
18
0L
1(
1'
1*
0&
13
1%
#345000
1#
1=
1I
1H
1G
1F
1A
0?
1M
14
09
08
07
1L
0G
0H
0A
0)
0(
0'
1&
17
18
03
1G
0%
1(
1)
08
0(
#350000
b1011 "
0#
1>
0=
1?
0I
1H
0G
0F
0O
0M
04
06
19
18
07
0H
0L
0J
0)
1(
1'
0*
0&
13
17
1)
1%
#355000
1#
1=
1I
1H
1G
1F
1A
1M
14
09
08
07
1L
1J
0K
0G
0)
0(
0'
1&
18
12
03
1K
0%
1+
1(
02
0+
#360000
b1111 "
b1101 "
b1100 "
0#
0>
0;
1B
0=
0I
0F
1O
0M
04
16
19
0L
1'
1*
0&
13
1%
#365000
1#
1=
1I
0H
1G
1F
1D
0A
0?
1M
14
09
08
17
1L
0F
0G
0D
1H
1)
0(
0'
1&
0M
04
07
18
19
03
1F
0%
1'
1(
0)
0&
1M
14
09
0'
1&
#370000
b1101 "
0#
1>
0=
1?
0I
0H
1G
0F
0O
0M
04
06
19
08
17
1H
1A
0L
0J
1)
0(
1'
0*
0&
13
07
0G
0)
1%
18
1(
#375000
1#
1=
1I
0H
1G
1F
1D
0A
1M
14
09
08
17
1L
0F
0G
0D
1)
0(
0'
1&
0M
04
18
19
03
1J
1F
0%
1'
1(
0&
1M
14
09
0'
1&
#380000
b1111 "
b1110 "
0#
0>
1;
0=
0I
1G
0F
1O
0M
04
16
19
08
0L
0(
1'
1*
0&
13
1%
#385000
1#
1=
1I
1H
0G
1F
1A
0?
1M
14
09
18
07
1L
1G
1D
0H
0A
0)
1(
0'
1&
17
08
03
0F
0G
0D
0%
0(
1)
0M
04
18
19
1F
1'
1(
0&
1M
14
09
0'
1&
#390000
b1111 "
0#
1>
0=
1?
0I
1H
1G
0F
0O
0M
04
06
19
08
07
0H
0L
0J
0)
0(
1'
0*
0&
13
17
1)
1%
#395000
1#
1=
1I
1H
0G
1F
1A
1M
14
09
18
07
1L
1J
1G
1D
0)
1(
0'
1&
08
03
0J
0F
0%
0(
0M
04
19
0L
1'
0&
13
1%
#400000
b111 "
b11 "
b1 "
b0 "
0#
0>
0;
0B
0E
0=
1J
1O
1N
15
16
1*
1$
#405000
1#
1=
0H
0G
1F
0D
0A
0?
0N
05
09
18
17
1L
0I
0F
1G
1H
1)
1(
0'
0$
1N
15
07
08
19
03
0L
0%
1'
0(
0)
1$
13
1%
#410000
b1 "
0#
1>
0=
0J
1?
1I
0H
0G
1F
0O
1M
14
06
09
18
17
1H
1A
1L
1J
1)
1(
0'
0*
1&
03
07
1G
1D
0)
0%
08
0J
0F
0(
0M
04
19
0L
1'
0&
13
1%
#415000
1#
1=
0H
0G
1F
0D
0A
0N
05
09
18
17
1L
1J
0I
0F
1G
1)
1(
0'
0$
1N
15
08
19
03
0L
0J
0%
1'
0(
1$
13
1%
#420000
b11 "
b10 "
0#
0>
1;
0=
1J
1I
0G
1F
1O
1M
14
16
09
18
1L
1(
0'
1*
1&
03
0%
#425000
1#
1=
0I
1H
1G
0F
1A
0?
0M
04
19
08
07
0L
0G
0H
0A
0)
0(
1'
0&
17
18
13
1G
1%
1(
1)
08
0(
#430000
b11 "
0#
1>
0=
0J
1?
1I
1H
0G
1F
0O
1M
14
06
09
18
07
0H
1L
1J
0)
1(
0'
0*
1&
03
17
1)
0%
#435000
1#
1=
0I
1H
1G
0F
1A
0M
04
19
08
07
0L
0J
0G
0)
0(
1'
0&
18
13
1%
1(
#440000
b111 "
b101 "
b100 "
0#
0>
0;
1B
0=
1J
1I
1F
1O
1M
14
16
09
1L
0'
1*
1&
03
0%
#445000
1#
1=
0I
0H
1G
0F
1D
0A
0?
0M
04
19
08
17
1I
1F
0G
0D
1H
1)
0(
1'
0&
0N
05
07
18
09
0I
0F
0'
1(
0)
0$
1N
15
19
0L
1'
1$
13
1%
#450000
b101 "
0#
1>
0=
0J
1?
1I
0H
1G
1F
0O
1M
14
06
09
08
17
1H
1A
1L
1J
1)
0(
0'
0*
1&
03
07
0G
0)
0%
18
1(
#455000
1#
1=
0I
0H
1G
0F
1D
0A
0M
04
19
08
17
1I
1F
0G
0D
1)
0(
1'
0&
0N
05
18
09
0I
0F
0'
1(
0$
1N
15
19
0L
0J
1'
1$
13
1%
#460000
b111 "
b110 "
0#
0>
1;
0=
1J
1I
1G
1F
1O
1M
14
16
09
08
1L
0(
0'
1*
1&
03
0%
#465000
1#
1=
0I
1H
0G
0F
1A
0?
0M
04
19
18
07
0L
1G
1D
0H
0A
0)
1(
1'
0&
17
08
13
1L
1I
1F
0G
0D
1%
0(
1)
0N
05
18
09
03
0I
0F
0%
0'
1(
0$
1N
15
19
0L
1'
1$
13
1%
#470000
b111 "
0#
1>
0=
0J
1?
1I
1H
1G
1F
0O
1M
14
06
09
08
07
0K
0H
1L
1J
0)
0(
0'
0*
1&
03
17
12
1K
1+
1)
0%
02
0+
#475000
1#
1=
0I
1H
0G
0F
1A
0M
04
19
18
07
0L
0J
1G
1D
0)
1(
1'
0&
08
13
1L
1J
1I
1F
1%
0(
0N
05
09
03
0J
0%
0'
0$
0K
12
1+
#480000
b1111 "
b1011 "
b1001 "
b1000 "
0#
0>
0;
0B
1E
0=
1J
1O
1N
15
16
1K
1*
1$
02
0+
#485000
1#
1=
0H
0G
0F
0D
0A
0?
0N
05
19
18
17
1F
1G
1H
1)
1(
1'
0$
1M
14
07
08
09
0'
0(
0)
1&
#490000
b1001 "
0#
1>
0=
1?
0I
0H
0G
0F
0O
0M
04
06
19
18
17
1H
1A
0L
0J
1)
1(
1'
0*
0&
13
07
1G
1D
0)
1%
08
1L
1J
1I
1F
0(
1N
15
09
03
0J
0%
0'
1$
0K
12
1+
#495000
1#
1=
0H
0G
0F
0D
0A
0N
05
19
18
17
1K
1J
1F
1G
1)
1(
1'
0$
1M
14
08
09
02
0+
0'
0(
1&
#500000
b1011 "
b1010 "
0#
0>
1;
0=
0I
0G
0F
1O
0M
04
16
19
18
0L
1(
1'
1*
0&
13
1%
#505000
1#
1=
1I
1H
1G
1F
1A
0?
1M
14
09
08
07
1L
0G
0H
0A
0)
0(
0'
1&
17
18
03
1G
0%
1(
1)
08
0(
#510000
b1011 "
0#
1>
0=
1?
0I
1H
0G
0F
0O
0M
04
06
19
18
07
0H
0L
0J
0)
1(
1'
0*
0&
13
17
1)
1%
#515000
1#
1=
1I
1H
1G
1F
1A
1M
14
09
08
07
1L
1J
0K
0G
0)
0(
0'
1&
18
12
03
1K
0%
1+
1(
02
0+
#520000
b1111 "
b1101 "
b1100 "
0#
0>
0;
1B
0=
0I
0F
1O
0M
04
16
19
0L
1'
1*
0&
13
1%
#525000
1#
1=
1I
0H
1G
1F
1D
0A
0?
1M
14
09
08
17
1L
0F
0G
0D
1H
1)
0(
0'
1&
0M
04
07
18
19
03
1F
0%
1'
1(
0)
0&
1M
14
09
0'
1&
#530000
b1101 "
0#
1>
0=
1?
0I
0H
1G
0F
0O
0M
04
06
19
08
17
1H
1A
0L
0J
1)
0(
1'
0*
0&
13
07
0G
0)
1%
18
1(
#535000
1#
1=
1I
0H
1G
1F
1D
0A
1M
14
09
08
17
1L
0F
0G
0D
1)
0(
0'
1&
0M
04
18
19
03
1J
1F
0%
1'
1(
0&
1M
14
09
0'
1&
#540000
b1111 "
b1110 "
0#
0>
1;
0=
0I
1G
0F
1O
0M
04
16
19
08
0L
0(
1'
1*
0&
13
1%
#545000
1#
1=
1I
1H
0G
1F
1A
0?
1M
14
09
18
07
1L
1G
1D
0H
0A
0)
1(
0'
1&
17
08
03
0F
0G
0D
0%
0(
1)
0M
04
18
19
1F
1'
1(
0&
1M
14
09
0'
1&
#550000
b1111 "
0#
1>
0=
1?
0I
1H
1G
0F
0O
0M
04
06
19
08
07
0H
0L
0J
0)
0(
1'
0*
0&
13
17
1)
1%
#555000
1#
1=
1I
1H
0G
1F
1A
1M
14
09
18
07
1L
1J
1G
1D
0)
1(
0'
1&
08
03
0J
0F
0%
0(
0M
04
19
0L
1'
0&
13
1%
#560000
b111 "
b11 "
b1 "
b0 "
0#
0>
0;
0B
0E
0=
1J
1O
1N
15
16
1*
1$
#565000
1#
1=
0H
0G
1F
0D
0A
0?
0N
05
09
18
17
1L
0I
0F
1G
1H
1)
1(
0'
0$
1N
15
07
08
19
03
0L
0%
1'
0(
0)
1$
13
1%
#570000
b1 "
0#
1>
0=
0J
1?
1I
0H
0G
1F
0O
1M
14
06
09
18
17
1H
1A
1L
1J
1)
1(
0'
0*
1&
03
07
1G
1D
0)
0%
08
0J
0F
0(
0M
04
19
0L
1'
0&
13
1%
#575000
1#
1=
0H
0G
1F
0D
0A
0N
05
09
18
17
1L
1J
0I
0F
1G
1)
1(
0'
0$
1N
15
08
19
03
0L
0J
0%
1'
0(
1$
13
1%
#580000
b11 "
b10 "
0#
0>
1;
0=
1J
1I
0G
1F
1O
1M
14
16
09
18
1L
1(
0'
1*
1&
03
0%
#585000
1#
1=
0I
1H
1G
0F
1A
0?
0M
04
19
08
07
0L
0G
0H
0A
0)
0(
1'
0&
17
18
13
1G
1%
1(
1)
08
0(
#590000
b11 "
0#
1>
0=
0J
1?
1I
1H
0G
1F
0O
1M
14
06
09
18
07
0H
1L
1J
0)
1(
0'
0*
1&
03
17
1)
0%
#595000
1#
1=
0I
1H
1G
0F
1A
0M
04
19
08
07
0L
0J
0G
0)
0(
1'
0&
18
13
1%
1(
#600000
b111 "
b101 "
b100 "
0#
0>
0;
1B
0=
1J
1I
1F
1O
1M
14
16
09
1L
0'
1*
1&
03
0%
#605000
1#
1=
0I
0H
1G
0F
1D
0A
0?
0M
04
19
08
17
1I
1F
0G
0D
1H
1)
0(
1'
0&
0N
05
07
18
09
0I
0F
0'
1(
0)
0$
1N
15
19
0L
1'
1$
13
1%
#610000
b101 "
0#
1>
0=
0J
1?
1I
0H
1G
1F
0O
1M
14
06
09
08
17
1H
1A
1L
1J
1)
0(
0'
0*
1&
03
07
0G
0)
0%
18
1(
#615000
1#
1=
0I
0H
1G
0F
1D
0A
0M
04
19
08
17
1I
1F
0G
0D
1)
0(
1'
0&
0N
05
18
09
0I
0F
0'
1(
0$
1N
15
19
0L
0J
1'
1$
13
1%
#620000
b111 "
b110 "
0#
0>
1;
0=
1J
1I
1G
1F
1O
1M
14
16
09
08
1L
0(
0'
1*
1&
03
0%
#625000
1#
1=
0I
1H
0G
0F
1A
0?
0M
04
19
18
07
0L
1G
1D
0H
0A
0)
1(
1'
0&
17
08
13
1L
1I
1F
0G
0D
1%
0(
1)
0N
05
18
09
03
0I
0F
0%
0'
1(
0$
1N
15
19
0L
1'
1$
13
1%
#630000
b111 "
0#
1>
0=
0J
1?
1I
1H
1G
1F
0O
1M
14
06
09
08
07
0K
0H
1L
1J
0)
0(
0'
0*
1&
03
17
12
1K
1+
1)
0%
02
0+
#635000
1#
1=
0I
1H
0G
0F
1A
0M
04
19
18
07
0L
0J
1G
1D
0)
1(
1'
0&
08
13
1L
1J
1I
1F
1%
0(
0N
05
09
03
0J
0%
0'
0$
0K
12
1+
#640000
b1011 !
b1010 !
b1111 "
b1011 "
b1001 "
b1000 "
0#
0>
0;
0B
1E
0<
1@
0=
0H
1N
15
17
1K
1)
1$
02
0+
#645000
1#
1=
1H
0G
0F
0D
0?
0N
05
19
18
07
1J
1F
0H
0A
0)
1(
1'
0$
1M
14
17
09
1G
0'
1)
1&
08
0(
#650000
b1001 "
0#
1>
0=
0I
1H
0G
0F
1A
1O
0M
04
16
19
18
07
0L
1G
1D
0)
1(
1'
1*
0&
08
13
1L
1I
1F
1%
0(
1N
15
09
03
0%
0'
1$
#655000
1#
1=
0H
0G
0F
0D
0A
0N
05
19
18
17
1F
1G
1)
1(
1'
0$
1M
14
08
09
0'
0(
1&
#660000
b1011 "
b1010 "
0#
0>
1;
0=
1?
0I
0G
0F
0O
0M
04
06
19
18
1H
1A
0L
0J
1(
1'
0*
0&
13
07
1G
1D
0)
1%
08
1L
1J
1I
1F
0(
1N
15
09
03
0J
0%
0'
1$
0K
12
1+
#665000
1#
1=
0H
0G
0F
0D
0?
0N
05
19
18
17
1K
1J
1F
1H
1)
1(
1'
0$
1M
14
07
09
02
0+
0'
0)
1&
#670000
b1011 "
0#
1>
0=
0I
0H
1G
0F
1D
0A
1O
0M
04
16
19
08
17
1I
1F
0G
0D
1)
0(
1'
1*
0&
1N
15
18
09
0I
0F
0'
1(
1$
0N
05
19
0L
1'
0$
13
1%
#675000
1#
1=
1I
1H
1G
1F
1A
1M
14
09
08
07
1L
0G
0)
0(
0'
1&
18
03
0%
1(
#680000
b1111 "
b1101 "
b1100 "
0#
0>
0;
1B
0=
1?
0I
0F
0O
0M
04
06
19
0H
0L
0J
1'
0*
0&
13
17
1)
1%
#685000
1#
1=
1I
1H
1G
1F
1D
0?
1M
14
09
08
07
1L
0K
0F
0H
0A
0)
0(
0'
1&
0M
04
17
19
12
03
0L
1K
0G
0D
0%
1+
1'
1)
0&
18
02
13
1L
1J
1F
1%
0+
1(
1M
14
09
03
0%
0'
1&
#690000
b1101 "
0#
1>
0=
0I
1H
1G
0F
1A
1O
0M
04
16
19
08
07
0L
0G
0)
0(
1'
1*
0&
18
13
1%
1(
#695000
1#
1=
1I
0H
1G
1F
1D
0A
1M
14
09
08
17
1L
0F
0G
0D
1)
0(
0'
1&
0M
04
18
19
03
1F
0%
1'
1(
0&
1M
14
09
0'
1&
#700000
b1111 "
b1110 "
0#
0>
1;
0=
1?
0I
1G
0F
0O
0M
04
06
19
08
1H
1A
0L
0J
0(
1'
0*
0&
13
07
0G
0)
1%
18
1(
#705000
1#
1=
1I
0H
1G
1F
1D
0?
1M
14
09
08
17
1L
0F
1H
1)
0(
0'
1&
0M
04
07
19
03
0L
0%
1'
0)
0&
13
1%
#710000
b1111 "
0#
1>
0=
1J
0H
0G
1F
0D
0A
1O
1N
15
16
09
18
17
1L
0I
0F
1G
1)
1(
0'
1*
1$
0N
05
08
19
03
0L
0%
1'
0(
0$
13
1%
#715000
1#
1=
1I
1H
0G
1F
1A
1M
14
09
18
07
1L
1G
1D
0)
1(
0'
1&
08
03
0F
0%
0(
0M
04
19
0L
1'
0&
13
1%
#720000
b111 "
b11 "
b1 "
b0 "
0#
0>
0;
0B
0E
0=
0J
1?
0O
1N
15
06
0H
0*
1$
17
1)
#725000
1#
1=
1H
0G
1F
0D
0?
0N
05
09
18
07
1L
1J
0I
0F
0H
0A
0)
1(
0'
0$
1N
15
17
19
03
0L
0J
1G
0%
1'
1)
1$
08
13
1%
0(
#730000
b1 "
0#
1>
0=
1J
1I
1H
0G
1F
1A
1O
1M
14
16
09
18
07
1L
1G
1D
0)
1(
0'
1*
1&
08
03
0F
0%
0(
0M
04
19
0L
1'
0&
13
1%
#735000
1#
1=
0H
0G
1F
0D
0A
0N
05
09
18
17
1L
0I
0F
1G
1)
1(
0'
0$
1N
15
08
19
03
0L
0%
1'
0(
1$
13
1%
#740000
b11 "
b10 "
0#
0>
1;
0=
0J
1?
1I
0G
1F
0O
1M
14
06
09
18
1H
1A
1L
1J
1(
0'
0*
1&
03
07
1G
1D
0)
0%
08
0J
0F
0(
0M
04
19
0L
1'
0&
13
1%
#745000
1#
1=
0H
0G
1F
0D
0?
0N
05
09
18
17
1L
1J
0I
0F
1H
1)
1(
0'
0$
1N
15
07
19
03
0L
0J
0%
1'
0)
1$
13
1%
#750000
b11 "
0#
1>
0=
1J
1I
0H
1G
1F
1D
0A
1O
1M
14
16
09
08
17
1L
0F
0G
0D
1)
0(
0'
1*
1&
0M
04
18
19
03
1F
0%
1'
1(
0&
1M
14
09
0'
1&
#755000
1#
1=
0I
1H
1G
0F
1A
0M
04
19
08
07
0L
0G
0)
0(
1'
0&
18
13
1%
1(
