code/counter/simulation/qsim/counter_2_numbers.msim.vcd
$comment
	File created using the following command:
		vcd file counter_2_numbers.msim.vcd -direction
$end
$date
	Fri Jul 30 23:20:38 2021
$end
$version
	ModelSim Version 2020.1
$end
$timescale
	1ps
$end

$scope module counter_2_numbers_vhd_vec_tst $end
$var wire 1 ! A [3] $end
$var wire 1 " A [2] $end
$var wire 1 # A [1] $end
$var wire 1 $ A [0] $end
$var wire 1 % B [3] $end
$var wire 1 & B [2] $end
$var wire 1 ' B [1] $end
$var wire 1 ( B [0] $end
$var wire 1 ) clk $end

$scope module i1 $end
$var wire 1 * gnd $end
$var wire 1 + vcc $end
$var wire 1 , unknown $end
$var wire 1 - devoe $end
$var wire 1 . devclrn $end
$var wire 1 / devpor $end
$var wire 1 0 ww_devoe $end
$var wire 1 1 ww_devclrn $end
$var wire 1 2 ww_devpor $end
$var wire 1 3 ww_clk $end
$var wire 1 4 ww_A [3] $end
$var wire 1 5 ww_A [2] $end
$var wire 1 6 ww_A [1] $end
$var wire 1 7 ww_A [0] $end
$var wire 1 8 ww_B [3] $end
$var wire 1 9 ww_B [2] $end
$var wire 1 : ww_B [1] $end
$var wire 1 ; ww_B [0] $end
$var wire 1 < \A[0]~output_o\ $end
$var wire 1 = \A[1]~output_o\ $end
$var wire 1 > \A[2]~output_o\ $end
$var wire 1 ? \A[3]~output_o\ $end
$var wire 1 @ \B[0]~output_o\ $end
$var wire 1 A \B[1]~output_o\ $end
$var wire 1 B \B[2]~output_o\ $end
$var wire 1 C \B[3]~output_o\ $end
$var wire 1 D \clk~input_o\ $end
$var wire 1 E \A_counter|counter_process:prescaler[0]~q\ $end
$var wire 1 F \A_counter|Add0~0_combout\ $end
$var wire 1 G \A_counter|counter_process:prescaler[1]~q\ $end
$var wire 1 H \A_counter|Add0~1\ $end
$var wire 1 I \A_counter|Add0~2_combout\ $end
$var wire 1 J \A_counter|counter_process:prescaler[2]~q\ $end
$var wire 1 K \A_counter|Add0~3\ $end
$var wire 1 L \A_counter|Add0~4_combout\ $end
$var wire 1 M \A_counter|counter_process:prescaler[3]~q\ $end
$var wire 1 N \A_counter|Add0~5\ $end
$var wire 1 O \A_counter|Add0~6_combout\ $end
$var wire 1 P \A_counter|Equal0~0_combout\ $end
$var wire 1 Q \A_counter|counter_process:prescaler[16]~q\ $end
$var wire 1 R \A_counter|Add0~7\ $end
$var wire 1 S \A_counter|Add0~8_combout\ $end
$var wire 1 T \A_counter|counter_process:prescaler[4]~q\ $end
$var wire 1 U \A_counter|Add0~9\ $end
$var wire 1 V \A_counter|Add0~11\ $end
$var wire 1 W \A_counter|Add0~12_combout\ $end
$var wire 1 X \A_counter|counter_process:prescaler[6]~q\ $end
$var wire 1 Y \A_counter|Add0~13\ $end
$var wire 1 Z \A_counter|Add0~14_combout\ $end
$var wire 1 [ \A_counter|counter_process:prescaler[20]~q\ $end
$var wire 1 \ \A_counter|Add0~33\ $end
$var wire 1 ] \A_counter|Add0~34_combout\ $end
$var wire 1 ^ \A_counter|counter_process:prescaler[17]~q\ $end
$var wire 1 _ \A_counter|Add0~35\ $end
$var wire 1 ` \A_counter|Add0~36_combout\ $end
$var wire 1 a \A_counter|counter_process:prescaler[18]~q\ $end
$var wire 1 b \A_counter|Add0~37\ $end
$var wire 1 c \A_counter|Add0~38_combout\ $end
$var wire 1 d \A_counter|counter_process:prescaler[19]~q\ $end
$var wire 1 e \A_counter|Add0~39\ $end
$var wire 1 f \A_counter|Add0~40_combout\ $end
$var wire 1 g \A_counter|counter_process:prescaler[21]~q\ $end
$var wire 1 h \A_counter|Add0~41\ $end
$var wire 1 i \A_counter|Add0~42_combout\ $end
$var wire 1 j \A_counter|counter_process:prescaler[22]~q\ $end
$var wire 1 k \A_counter|Add0~43\ $end
$var wire 1 l \A_counter|Add0~44_combout\ $end
$var wire 1 m \A_counter|Equal0~6_combout\ $end
$var wire 1 n \A_counter|prescaler~1_combout\ $end
$var wire 1 o \A_counter|counter_process:prescaler[7]~q\ $end
$var wire 1 p \A_counter|Add0~15\ $end
$var wire 1 q \A_counter|Add0~16_combout\ $end
$var wire 1 r \A_counter|counter_process:prescaler[8]~q\ $end
$var wire 1 s \A_counter|Add0~17\ $end
$var wire 1 t \A_counter|Add0~18_combout\ $end
$var wire 1 u \A_counter|counter_process:prescaler[9]~q\ $end
$var wire 1 v \A_counter|Add0~19\ $end
$var wire 1 w \A_counter|Add0~20_combout\ $end
$var wire 1 x \A_counter|counter_process:prescaler[10]~q\ $end
$var wire 1 y \A_counter|Add0~21\ $end
$var wire 1 z \A_counter|Add0~22_combout\ $end
$var wire 1 { \A_counter|counter_process:prescaler[11]~q\ $end
$var wire 1 | \A_counter|Add0~23\ $end
$var wire 1 } \A_counter|Add0~24_combout\ $end
$var wire 1 ~ \A_counter|counter_process:prescaler[12]~q\ $end
$var wire 1 !! \A_counter|Add0~25\ $end
$var wire 1 "! \A_counter|Add0~26_combout\ $end
$var wire 1 #! \A_counter|counter_process:prescaler[13]~q\ $end
$var wire 1 $! \A_counter|Add0~27\ $end
$var wire 1 %! \A_counter|Add0~28_combout\ $end
$var wire 1 &! \A_counter|counter_process:prescaler[14]~q\ $end
$var wire 1 '! \A_counter|Add0~29\ $end
$var wire 1 (! \A_counter|Add0~30_combout\ $end
$var wire 1 )! \A_counter|counter_process:prescaler[15]~q\ $end
$var wire 1 *! \A_counter|Add0~31\ $end
$var wire 1 +! \A_counter|Add0~32_combout\ $end
$var wire 1 ,! \A_counter|Equal0~5_combout\ $end
$var wire 1 -! \A_counter|prescaler~0_combout\ $end
$var wire 1 .! \A_counter|counter_process:prescaler[5]~q\ $end
$var wire 1 /! \A_counter|Add0~10_combout\ $end
$var wire 1 0! \A_counter|Equal0~1_combout\ $end
$var wire 1 1! \A_counter|Equal0~2_combout\ $end
$var wire 1 2! \A_counter|Equal0~3_combout\ $end
$var wire 1 3! \A_counter|Equal0~4_combout\ $end
$var wire 1 4! \A_counter|counter_process:counter_output[0]~0_combout\ $end
$var wire 1 5! \A_counter|counter_process:counter_output[0]~q\ $end
$var wire 1 6! \A_counter|counter_process:counter_output[1]~0_combout\ $end
$var wire 1 7! \A_counter|counter_process:counter_output[1]~1_combout\ $end
$var wire 1 8! \A_counter|counter_process:counter_output[1]~q\ $end
$var wire 1 9! \A_counter|counter_process:counter_output[2]~0_combout\ $end
$var wire 1 :! \A_counter|counter_process:counter_output[2]~q\ $end
$var wire 1 ;! \A_counter|counter_process:counter_output[3]~0_combout\ $end
$var wire 1 <! \A_counter|counter_process:counter_output[3]~q\ $end
$var wire 1 =! \B_counter|counter_process:prescaler[16]~q\ $end
$var wire 1 >! \B_counter|Add0~1\ $end
$var wire 1 ?! \B_counter|Add0~3\ $end
$var wire 1 @! \B_counter|Add0~4_combout\ $end
$var wire 1 A! \B_counter|counter_process:prescaler[2]~q\ $end
$var wire 1 B! \B_counter|Add0~5\ $end
$var wire 1 C! \B_counter|Add0~6_combout\ $end
$var wire 1 D! \B_counter|counter_process:prescaler[20]~q\ $end
$var wire 1 E! \B_counter|Add0~33\ $end
$var wire 1 F! \B_counter|Add0~34_combout\ $end
$var wire 1 G! \B_counter|counter_process:prescaler[17]~q\ $end
$var wire 1 H! \B_counter|Add0~35\ $end
$var wire 1 I! \B_counter|Add0~36_combout\ $end
$var wire 1 J! \B_counter|counter_process:prescaler[18]~q\ $end
$var wire 1 K! \B_counter|Add0~37\ $end
$var wire 1 L! \B_counter|Add0~38_combout\ $end
$var wire 1 M! \B_counter|counter_process:prescaler[19]~q\ $end
$var wire 1 N! \B_counter|Add0~39\ $end
$var wire 1 O! \B_counter|Add0~40_combout\ $end
$var wire 1 P! \B_counter|counter_process:prescaler[21]~q\ $end
$var wire 1 Q! \B_counter|Add0~41\ $end
$var wire 1 R! \B_counter|Add0~42_combout\ $end
$var wire 1 S! \B_counter|counter_process:prescaler[22]~q\ $end
$var wire 1 T! \B_counter|Add0~43\ $end
$var wire 1 U! \B_counter|Add0~44_combout\ $end
$var wire 1 V! \B_counter|Equal0~6_combout\ $end
$var wire 1 W! \B_counter|prescaler~1_combout\ $end
$var wire 1 X! \B_counter|counter_process:prescaler[3]~q\ $end
$var wire 1 Y! \B_counter|Add0~7\ $end
$var wire 1 Z! \B_counter|Add0~8_combout\ $end
$var wire 1 [! \B_counter|counter_process:prescaler[4]~q\ $end
$var wire 1 \! \B_counter|Add0~9\ $end
$var wire 1 ]! \B_counter|Add0~10_combout\ $end
$var wire 1 ^! \B_counter|counter_process:prescaler[5]~q\ $end
$var wire 1 _! \B_counter|Add0~11\ $end
$var wire 1 `! \B_counter|Add0~12_combout\ $end
$var wire 1 a! \B_counter|counter_process:prescaler[6]~q\ $end
$var wire 1 b! \B_counter|Add0~13\ $end
$var wire 1 c! \B_counter|Add0~14_combout\ $end
$var wire 1 d! \B_counter|counter_process:prescaler[7]~q\ $end
$var wire 1 e! \B_counter|Add0~15\ $end
$var wire 1 f! \B_counter|Add0~16_combout\ $end
$var wire 1 g! \B_counter|counter_process:prescaler[8]~q\ $end
$var wire 1 h! \B_counter|Add0~17\ $end
$var wire 1 i! \B_counter|Add0~18_combout\ $end
$var wire 1 j! \B_counter|counter_process:prescaler[9]~q\ $end
$var wire 1 k! \B_counter|Add0~19\ $end
$var wire 1 l! \B_counter|Add0~20_combout\ $end
$var wire 1 m! \B_counter|counter_process:prescaler[10]~q\ $end
$var wire 1 n! \B_counter|Add0~21\ $end
$var wire 1 o! \B_counter|Add0~22_combout\ $end
$var wire 1 p! \B_counter|counter_process:prescaler[11]~q\ $end
$var wire 1 q! \B_counter|Add0~23\ $end
$var wire 1 r! \B_counter|Add0~24_combout\ $end
$var wire 1 s! \B_counter|counter_process:prescaler[12]~q\ $end
$var wire 1 t! \B_counter|Add0~25\ $end
$var wire 1 u! \B_counter|Add0~26_combout\ $end
$var wire 1 v! \B_counter|counter_process:prescaler[13]~q\ $end
$var wire 1 w! \B_counter|Add0~27\ $end
$var wire 1 x! \B_counter|Add0~28_combout\ $end
$var wire 1 y! \B_counter|counter_process:prescaler[14]~q\ $end
$var wire 1 z! \B_counter|Add0~29\ $end
$var wire 1 {! \B_counter|Add0~30_combout\ $end
$var wire 1 |! \B_counter|counter_process:prescaler[15]~q\ $end
$var wire 1 }! \B_counter|Add0~31\ $end
$var wire 1 ~! \B_counter|Add0~32_combout\ $end
$var wire 1 !" \B_counter|Equal0~5_combout\ $end
$var wire 1 "" \B_counter|prescaler~0_combout\ $end
$var wire 1 #" \B_counter|counter_process:prescaler[1]~q\ $end
$var wire 1 $" \B_counter|Add0~2_combout\ $end
$var wire 1 %" \B_counter|Add0~0_combout\ $end
$var wire 1 &" \B_counter|Equal0~0_combout\ $end
$var wire 1 '" \B_counter|Equal0~1_combout\ $end
$var wire 1 (" \B_counter|Equal0~2_combout\ $end
$var wire 1 )" \B_counter|Equal0~3_combout\ $end
$var wire 1 *" \B_counter|Equal0~4_combout\ $end
$var wire 1 +" \B_counter|counter_process:counter_output[0]~0_combout\ $end
$var wire 1 ," \B_counter|counter_process:counter_output[0]~q\ $end
$var wire 1 -" \B_counter|counter_process:counter_output[1]~0_combout\ $end
$var wire 1 ." \B_counter|counter_process:counter_output[1]~1_combout\ $end
$var wire 1 /" \B_counter|counter_process:counter_output[1]~2_combout\ $end
$var wire 1 0" \B_counter|counter_process:counter_output[1]~q\ $end
$var wire 1 1" \B_counter|counter_process:counter_output[2]~0_combout\ $end
$var wire 1 2" \B_counter|counter_process:counter_output[2]~q\ $end
$var wire 1 3" \B_counter|counter_process:counter_output[3]~0_combout\ $end
$var wire 1 4" \B_counter|counter_process:counter_output[3]~q\ $end
$var wire 1 5" \B_counter|ALT_INV_counter_process:counter_output[3]~q\ $end
$var wire 1 6" \A_counter|ALT_INV_counter_process:counter_output[3]~q\ $end
$upscope $end
$upscope $end
$enddefinitions $end
#0
$dumpvars
0)
0*
1+
x,
1-
1.
1/
10
11
12
03
0<
0=
0>
1?
0@
0A
0B
1C
0D
0E
1F
0G
0H
0I
0J
1K
0L
0M
0N
0O
0P
0Q
1R
0S
0T
0U
1V
0W
0X
0Y
0Z
0[
0\
0]
0^
1_
0`
0a
0b
0c
0d
1e
0f
0g
0h
0i
0j
1k
0l
1m
0n
0o
1p
0q
0r
0s
0t
0u
1v
0w
0x
0y
0z
0{
1|
0}
0~
0!!
0"!
0#!
1$!
0%!
0&!
0'!
0(!
0)!
1*!
0+!
1,!
0-!
0.!
0/!
00!
11!
12!
03!
04!
05!
06!
07!
08!
09!
0:!
0;!
0<!
0=!
0>!
1?!
0@!
0A!
0B!
0C!
0D!
0E!
0F!
0G!
1H!
0I!
0J!
0K!
0L!
0M!
1N!
0O!
0P!
0Q!
0R!
0S!
1T!
0U!
1V!
0W!
0X!
1Y!
0Z!
0[!
0\!
0]!
0^!
1_!
0`!
0a!
0b!
0c!
0d!
1e!
0f!
0g!
0h!
0i!
0j!
1k!
0l!
0m!
0n!
0o!
0p!
1q!
0r!
0s!
0t!
0u!
0v!
1w!
0x!
0y!
0z!
0{!
0|!
1}!
0~!
1!"
0""
0#"
0$"
1%"
0&"
1'"
1("
1)"
0*"
0+"
0,"
0-"
0."
0/"
00"
01"
02"
03"
04"
15"
16"
14
05
06
07
18
09
0:
0;
1!
0"
0#
0$
1%
0&
0'
0(
$end
#1000
1)
13
1D
1E
0F
1H
0%"
1>!
1$"
1I
1P
0P
1""
#2000
0)
03
0D
#3000
1)
13
1D
0E
1G
1#"
0$"
0?!
0I
0K
1F
0H
1%"
0>!
1$"
1?!
1I
1K
1L
1@!
0""
0L
0@!
1""
#4000
0)
03
0D
#5000
1)
13
1D
1E
0F
1H
0%"
1>!
0$"
0?!
0I
0K
1L
1P
1@!
0""
0P
#6000
0)
03
0D
#7000
1)
13
1D
0E
0G
1J
1A!
0#"
1$"
1?!
0@!
1B!
0L
1N
1I
1K
1F
0H
1%"
0>!
0$"
0I
1L
0N
1O
1C!
1@!
0B!
1""
0C!
1W!
0O
0""
0W!
#8000
0)
03
0D
#9000
1)
13
1D
1E
0F
1H
0%"
1>!
1$"
1I
1""
#10000
0)
03
0D
#11000
1)
13
1D
0E
1G
1#"
0$"
0?!
0I
0K
1F
0H
1%"
0>!
1$"
1?!
1I
1K
0L
1N
0@!
1B!
0""
1C!
1O
1L
0N
1@!
0B!
1""
0C!
0O
1W!
0W!
#12000
0)
03
0D
#13000
1)
13
1D
1E
0F
1H
0%"
1>!
0$"
0?!
0I
0K
0L
1N
0@!
1B!
0""
1C!
1O
1P
0P
1W!
#14000
0)
03
0D
#15000
1)
13
1D
0E
0G
0J
1M
0A!
1X!
0#"
1$"
1?!
0C!
0Y!
1@!
0B!
0O
0R
1L
0N
1I
1K
1F
0H
1%"
0>!
0$"
0I
0L
1O
1R
1S
1C!
1Y!
1Z!
0W!
0@!
1""
0'"
0Z!
1W!
0S
0""
1'"
#16000
0)
03
0D
#17000
1)
13
1D
1E
0F
1H
0%"
1>!
1$"
1I
1""
1&"
1*"
0W!
0""
1+"
#18000
0)
03
0D
#19000
1)
13
1D
0E
1G
0X!
1,"
0+"
1-"
0C!
0I
0K
1F
0H
1%"
0>!
0$"
1I
1K
1L
0&"
1."
1@
1/"
0*"
0L
1;
1(
1+"
0-"
0."
0/"
#20000
0)
03
0D
#21000
1)
13
1D
1E
0F
1H
0%"
1>!
1$"
0I
0K
1L
1""
#22000
0)
03
0D
#23000
1)
13
1D
0E
0G
1J
1#"
0$"
0?!
0L
1N
1I
1K
1F
0H
1%"
0>!
1$"
1?!
0I
1L
0N
0O
0R
1@!
0""
1S
1O
1R
0@!
1""
0S
#24000
0)
03
0D
#25000
1)
13
1D
1E
0F
1H
0%"
1>!
0$"
0?!
1I
1@!
0""
#26000
0)
03
0D
#27000
1)
13
1D
0E
1G
1A!
0#"
1$"
1?!
0@!
1B!
0I
0K
1F
0H
1%"
0>!
0$"
1I
1K
0L
1N
1C!
1@!
0B!
1""
0C!
1W!
0O
0R
1L
0N
0""
1O
1R
1S
0W!
0S
#28000
0)
03
0D
#29000
1)
13
1D
1E
0F
1H
0%"
1>!
1$"
0I
0K
0L
1N
1""
0O
0R
1S
1P
#30000
0)
03
0D
#31000
1)
13
1D
0E
0G
0J
0M
1T
1#"
0$"
0?!
0S
1U
1O
1R
1L
0N
1I
1K
1F
0H
1%"
0>!
1$"
1?!
0I
0L
0O
1S
0U
0P
1/!
0@!
1B!
0""
1C!
1-!
0/!
1@!
0B!
1""
0C!
0-!
1W!
0W!
#32000
0)
03
0D
#33000
1)
13
1D
1E
0F
1H
0%"
1>!
0$"
0?!
1I
1P
0P
0@!
1B!
0""
1C!
1W!
#34000
0)
03
0D
#35000
1)
13
1D
0E
1G
0A!
1X!
0#"
1$"
1?!
0C!
0Y!
1@!
0B!
0I
0K
1F
0H
1%"
0>!
0$"
1I
1K
1L
1C!
1Y!
1Z!
0W!
0@!
1""
0'"
0Z!
1W!
0L
0""
1'"
#36000
0)
03
0D
#37000
1)
13
1D
1E
0F
1H
0%"
1>!
1$"
0I
0K
1L
1P
1""
1&"
1*"
0P
0W!
0""
0+"
1-"
1."
1/"
#38000
0)
03
0D
#39000
1)
13
1D
0E
0G
1J
0X!
0,"
10"
0/"
11"
1+"
0-"
0C!
0L
1N
1I
1K
1F
0H
1%"
0>!
0$"
0I
1L
0N
1O
0&"
0."
1A
0@
1/"
01"
0*"
0O
1:
0;
0(
1'
0+"
#40000
0)
03
0D
#41000
1)
13
1D
1E
0F
1H
0%"
1>!
1$"
1I
1""
#42000
0)
03
0D
#43000
1)
13
1D
0E
1G
1#"
0$"
0?!
0I
0K
1F
0H
1%"
0>!
1$"
1?!
1I
1K
0L
1N
1@!
0""
1O
1L
0N
0@!
1""
0O
#44000
0)
03
0D
#45000
1)
13
1D
1E
0F
1H
0%"
1>!
0$"
0?!
0I
0K
0L
1N
1@!
0""
1O
1P
0P
#46000
0)
03
0D
#47000
1)
13
1D
0E
0G
0J
1M
1A!
0#"
1$"
1?!
0@!
1B!
0O
0R
1L
0N
1I
1K
1F
0H
1%"
0>!
0$"
0I
0L
1O
1R
0S
1U
1C!
1@!
0B!
1""
0C!
1W!
1/!
1S
0U
0""
0/!
1-!
0W!
0-!
#48000
0)
03
0D
#49000
1)
13
1D
1E
0F
1H
0%"
1>!
1$"
1I
1""
#50000
0)
03
0D
#51000
1)
13
1D
0E
1G
1#"
0$"
0?!
0I
0K
1F
0H
1%"
0>!
1$"
1?!
1I
1K
1L
0@!
1B!
0""
1C!
0L
1@!
0B!
1""
0C!
1W!
0W!
#52000
0)
03
0D
#53000
1)
13
1D
1E
0F
1H
0%"
1>!
0$"
0?!
0I
0K
1L
0@!
1B!
0""
1C!
1W!
#54000
0)
03
0D
#55000
1)
13
1D
0E
0G
1J
0A!
1X!
0#"
1$"
1?!
0C!
0Y!
1@!
0B!
0L
1N
1I
1K
1F
0H
1%"
0>!
0$"
0I
1L
0N
0O
0R
1C!
1Y!
1Z!
0W!
0@!
1""
0'"
0Z!
1W!
0S
1U
1O
1R
0""
1S
0U
1/!
1'"
1-!
0/!
0-!
#56000
0)
03
0D
#57000
1)
13
1D
1E
0F
1H
0%"
1>!
1$"
1I
1""
1&"
1*"
0W!
0""
1+"
#58000
0)
03
0D
#59000
1)
13
1D
0E
1G
0X!
1,"
0+"
1-"
0C!
0I
0K
1F
0H
1%"
0>!
0$"
1I
1K
0L
1N
0&"
1."
1@
0/"
11"
0*"
0O
0R
1L
0N
1;
1(
1O
1R
0S
1U
1+"
0-"
0."
1/!
1S
0U
0/!
1-!
1/"
01"
0-!
#60000
0)
03
0D
#61000
1)
13
1D
1E
0F
1H
0%"
1>!
1$"
0I
0K
0L
1N
1""
0O
0R
0S
1U
1P
1/!
1-!
#62000
0)
03
0D
#63000
1)
13
1D
0E
0G
0J
0M
0T
1.!
1#"
0$"
0?!
0/!
0V
1S
0U
1O
1R
1L
0N
1I
1K
1F
0H
1%"
0>!
1$"
1?!
0I
0L
0O
0S
0P
1/!
1V
1W
0-!
1@!
0""
0W
1-!
0@!
1""
#64000
0)
03
0D
#65000
1)
13
1D
1E
0F
1H
0%"
1>!
0$"
0?!
1I
1P
0P
1@!
0""
#66000
0)
03
0D
#67000
1)
13
1D
0E
1G
1A!
0#"
1$"
1?!
0@!
1B!
0I
0K
1F
0H
1%"
0>!
0$"
1I
1K
1L
1C!
1@!
0B!
1""
0C!
1W!
0L
0""
0W!
#68000
0)
03
0D
#69000
1)
13
1D
1E
0F
1H
0%"
1>!
1$"
0I
0K
1L
1P
1""
0P
#70000
0)
03
0D
#71000
1)
13
1D
0E
0G
1J
1#"
0$"
0?!
0L
1N
1I
1K
1F
0H
1%"
0>!
1$"
1?!
0I
1L
0N
1O
0@!
1B!
0""
1C!
0O
1@!
0B!
1""
0C!
1W!
0W!
#72000
0)
03
0D
#73000
1)
13
1D
1E
0F
1H
0%"
1>!
0$"
0?!
1I
0@!
1B!
0""
1C!
1W!
#74000
0)
03
0D
#75000
1)
13
1D
0E
1G
0A!
1X!
0#"
1$"
1?!
0C!
0Y!
1@!
0B!
0I
0K
1F
0H
1%"
0>!
0$"
1I
1K
0L
1N
1C!
1Y!
1Z!
0W!
0@!
1""
0'"
0Z!
1W!
1O
1L
0N
0""
0O
1'"
#76000
0)
03
0D
#77000
1)
13
1D
1E
0F
1H
0%"
1>!
1$"
0I
0K
0L
1N
1""
1&"
1*"
1O
1P
0P
0W!
0""
0+"
1-"
1."
0/"
11"
#78000
0)
03
0D
#79000
1)
13
1D
0E
0G
0J
1M
0X!
0,"
00"
12"
1/"
1+"
0-"
0C!
0O
0R
1L
0N
1I
1K
1F
0H
1%"
0>!
0$"
0I
0L
1O
1R
1S
0&"
0."
1B
0A
0@
0/"
0*"
0S
19
0:
0;
0(
0'
1&
0+"
#80000
0)
03
0D
#81000
1)
13
1D
1E
0F
1H
0%"
1>!
1$"
1I
1""
#82000
0)
03
0D
#83000
1)
13
1D
0E
1G
1#"
0$"
0?!
0I
0K
1F
0H
1%"
0>!
1$"
1?!
1I
1K
1L
1@!
0""
0L
0@!
1""
#84000
0)
03
0D
#85000
1)
13
1D
1E
0F
1H
0%"
1>!
0$"
0?!
0I
0K
1L
1@!
0""
#86000
0)
03
0D
#87000
1)
13
1D
0E
0G
1J
1A!
0#"
1$"
1?!
0@!
1B!
0L
1N
1I
1K
1F
0H
1%"
0>!
0$"
0I
1L
0N
0O
0R
1C!
1@!
0B!
1""
0C!
1W!
1S
1O
1R
0""
0S
0W!
#88000
0)
03
0D
#89000
1)
13
1D
1E
0F
1H
0%"
1>!
1$"
1I
1""
#90000
0)
03
0D
#91000
1)
13
1D
0E
1G
1#"
0$"
0?!
0I
0K
1F
0H
1%"
0>!
1$"
1?!
1I
1K
0L
1N
0@!
1B!
0""
1C!
0O
0R
1L
0N
1@!
0B!
1""
0C!
1O
1R
1S
1W!
0S
0W!
#92000
0)
03
0D
#93000
1)
13
1D
1E
0F
1H
0%"
1>!
0$"
0?!
0I
0K
0L
1N
0@!
1B!
0""
1C!
0O
0R
1S
1P
1W!
#94000
0)
03
0D
#95000
1)
13
1D
0E
0G
0J
0M
1T
0A!
1X!
0#"
1$"
1?!
0C!
0Y!
1@!
0B!
0S
1U
1O
1R
1L
0N
1I
1K
1F
0H
1%"
0>!
0$"
0I
0L
0O
1S
0U
0P
0/!
0V
1C!
1Y!
1Z!
0W!
0@!
1""
0'"
0Z!
1W!
1W
0-!
1/!
1V
0""
0W
1-!
1'"
#96000
0)
03
0D
#97000
1)
13
1D
1E
0F
1H
0%"
1>!
1$"
1I
1P
0P
1""
1&"
1*"
0W!
0""
1+"
#98000
0)
03
0D
#99000
1)
13
1D
0E
1G
0X!
1,"
0+"
1-"
0C!
0I
0K
1F
0H
1%"
0>!
0$"
1I
1K
1L
0&"
1."
1@
1/"
0*"
0L
1;
1(
1+"
0-"
0."
0/"
#100000
0)
03
0D
#101000
1)
13
1D
1E
0F
1H
0%"
1>!
1$"
0I
0K
1L
1P
1""
0P
#102000
0)
03
0D
#103000
1)
13
1D
0E
0G
1J
1#"
0$"
0?!
0L
1N
1I
1K
1F
0H
1%"
0>!
1$"
1?!
0I
1L
0N
1O
1@!
0""
0O
0@!
1""
#104000
0)
03
0D
#105000
1)
13
1D
1E
0F
1H
0%"
1>!
0$"
0?!
1I
1@!
0""
#106000
0)
03
0D
#107000
1)
13
1D
0E
1G
1A!
0#"
1$"
1?!
0@!
1B!
0I
0K
1F
0H
1%"
0>!
0$"
1I
1K
0L
1N
1C!
1@!
0B!
1""
0C!
1W!
1O
1L
0N
0""
0O
0W!
#108000
0)
03
0D
#109000
1)
13
1D
1E
0F
1H
0%"
1>!
1$"
0I
0K
0L
1N
1""
1O
1P
0P
#110000
0)
03
0D
#111000
1)
13
1D
0E
0G
0J
1M
1#"
0$"
0?!
0O
0R
1L
0N
1I
1K
1F
0H
1%"
0>!
1$"
1?!
0I
0L
1O
1R
0S
1U
0@!
1B!
0""
1C!
0/!
0V
1S
0U
1@!
0B!
1""
0C!
1/!
1V
1W
0-!
1W!
0W
1-!
0W!
#112000
0)
03
0D
#113000
1)
13
1D
1E
0F
1H
0%"
1>!
0$"
0?!
1I
0@!
1B!
0""
1C!
1W!
#114000
0)
03
0D
#115000
1)
13
1D
0E
1G
0A!
1X!
0#"
1$"
1?!
0C!
0Y!
1@!
0B!
0I
0K
1F
0H
1%"
0>!
0$"
1I
1K
1L
1C!
1Y!
1Z!
0W!
0@!
1""
0'"
0Z!
1W!
0L
0""
1'"
#116000
0)
03
0D
#117000
1)
13
1D
1E
0F
1H
0%"
1>!
1$"
0I
0K
1L
1""
1&"
1*"
0W!
0""
0+"
1-"
1."
1/"
#118000
0)
03
0D
#119000
1)
13
1D
0E
0G
1J
0X!
0,"
10"
0/"
01"
13"
1+"
0-"
0C!
0L
1N
1I
1K
1F
0H
1%"
0>!
0$"
0I
1L
0N
0O
0R
0&"
0."
1A
0@
1/"
11"
03"
0*"
0S
1U
1O
1R
1:
0;
0(
1'
1S
0U
0/!
0V
0+"
1W
0-!
1/!
1V
0W
1-!
#120000
0)
03
0D
#121000
1)
13
1D
1E
0F
1H
0%"
1>!
1$"
1I
1""
#122000
0)
03
0D
#123000
1)
13
1D
0E
1G
1#"
0$"
0?!
0I
0K
1F
0H
1%"
0>!
1$"
1?!
1I
1K
0L
1N
1@!
0""
0O
0R
1L
0N
0@!
1""
1O
1R
0S
1U
0/!
0V
1S
0U
1/!
1V
1W
0-!
0W
1-!
#124000
0)
03
0D
#125000
1)
13
1D
1E
0F
1H
0%"
1>!
0$"
0?!
0I
0K
0L
1N
1@!
0""
0O
0R
0S
1U
1P
0/!
0V
1W
0-!
#126000
0)
03
0D
#127000
1)
13
1D
0E
0G
0J
0M
0T
1X
0.!
1A!
0#"
1$"
1?!
0@!
1B!
1/!
1V
0W
1Y
1S
0U
1O
1R
1L
0N
1I
1K
1F
0H
1%"
0>!
0$"
0I
0L
0O
0S
0P
0/!
1Z
1W
0Y
1-!
1C!
1@!
0B!
1""
0C!
1W!
0Z
1n
0-!
0""
0n
0W!
#128000
0)
03
0D
#129000
1)
13
1D
1E
0F
1H
0%"
1>!
1$"
1I
1P
0P
1""
#130000
0)
03
0D
#131000
1)
13
1D
0E
1G
1#"
0$"
0?!
0I
0K
1F
0H
1%"
0>!
1$"
1?!
1I
1K
1L
0@!
1B!
0""
1C!
0L
1@!
0B!
1""
0C!
1W!
0W!
#132000
0)
03
0D
#133000
1)
13
1D
1E
0F
1H
0%"
1>!
0$"
0?!
0I
0K
1L
1P
0@!
1B!
0""
1C!
0P
1W!
#134000
0)
03
0D
#135000
1)
13
1D
0E
0G
1J
0A!
1X!
0#"
1$"
1?!
0C!
0Y!
1@!
0B!
0L
1N
1I
1K
1F
0H
1%"
0>!
0$"
0I
1L
0N
1O
1C!
1Y!
1Z!
0W!
0@!
1""
0'"
0Z!
1W!
0O
0""
1'"
#136000
0)
03
0D
#137000
1)
13
1D
1E
0F
1H
0%"
1>!
1$"
1I
1""
1&"
1*"
0W!
0""
1+"
#138000
0)
03
0D
#139000
1)
13
1D
0E
1G
0X!
1,"
0+"
1-"
0C!
0I
0K
1F
0H
1%"
0>!
0$"
1I
1K
0L
1N
0&"
1."
1@
0/"
01"
13"
0*"
1O
1L
0N
1;
1(
0O
1+"
0-"
0."
1/"
11"
03"
#140000
0)
03
0D
#141000
1)
13
1D
1E
0F
1H
0%"
1>!
1$"
0I
0K
0L
1N
1""
1O
1P
0P
#142000
0)
03
0D
#143000
1)
13
1D
0E
0G
0J
1M
1#"
0$"
0?!
0O
0R
1L
0N
1I
1K
1F
0H
1%"
0>!
1$"
1?!
0I
0L
1O
1R
1S
1@!
0""
0S
0@!
1""
#144000
0)
03
0D
#145000
1)
13
1D
1E
0F
1H
0%"
1>!
0$"
0?!
1I
1@!
0""
#146000
0)
03
0D
#147000
1)
13
1D
0E
1G
1A!
0#"
1$"
1?!
0@!
1B!
0I
0K
1F
0H
1%"
0>!
0$"
1I
1K
1L
1C!
1@!
0B!
1""
0C!
1W!
0L
0""
0W!
#148000
0)
03
0D
#149000
1)
13
1D
1E
0F
1H
0%"
1>!
1$"
0I
0K
1L
1""
#150000
0)
03
0D
#151000
1)
13
1D
0E
0G
1J
1#"
0$"
0?!
0L
1N
1I
1K
1F
0H
1%"
0>!
1$"
1?!
0I
1L
0N
0O
0R
0@!
1B!
0""
1C!
1S
1O
1R
1@!
0B!
1""
0C!
0S
1W!
0W!
#152000
0)
03
0D
#153000
1)
13
1D
1E
0F
1H
0%"
1>!
0$"
0?!
1I
0@!
1B!
0""
1C!
1W!
#154000
0)
03
0D
