code/ULA/simulation/qsim/ULA.msim.vcd
$comment
	File created using the following command:
		vcd file ULA.msim.vcd -direction
$end
$date
	Sat Aug 14 18:17:50 2021
$end
$version
	ModelSim Version 2020.1
$end
$timescale
	1ps
$end

$scope module ULA_vlg_vec_tst $end
$var reg 4 ! A [3:0] $end
$var reg 4 " B [3:0] $end
$var reg 1 # CLK $end
$var reg 1 $ PAUSE $end
$var reg 3 % SEL [2:0] $end
$var wire 1 & COUT $end
$var wire 1 ' NEG $end
$var wire 1 ( OVER $end
$var wire 1 ) RESULT [3] $end
$var wire 1 * RESULT [2] $end
$var wire 1 + RESULT [1] $end
$var wire 1 , RESULT [0] $end
$var wire 1 - ZER $end

$scope module i1 $end
$var wire 1 . gnd $end
$var wire 1 / vcc $end
$var wire 1 0 unknown $end
$var tri1 1 1 devclrn $end
$var tri1 1 2 devpor $end
$var tri1 1 3 devoe $end
$var wire 1 4 PAUSE~input_o $end
$var wire 1 5 CLK~input_o $end
$var wire 1 6 ZER~output_o $end
$var wire 1 7 NEG~output_o $end
$var wire 1 8 OVER~output_o $end
$var wire 1 9 COUT~output_o $end
$var wire 1 : RESULT[0]~output_o $end
$var wire 1 ; RESULT[1]~output_o $end
$var wire 1 < RESULT[2]~output_o $end
$var wire 1 = RESULT[3]~output_o $end
$var wire 1 > SEL[0]~input_o $end
$var wire 1 ? SEL[1]~input_o $end
$var wire 1 @ SEL[2]~input_o $end
$var wire 1 A Equal0~0_combout $end
$var wire 1 B A[1]~input_o $end
$var wire 1 C B[1]~input_o $end
$var wire 1 D A[0]~input_o $end
$var wire 1 E B[0]~input_o $end
$var wire 1 F Sub_C2|Full_Adder|a1|S~combout $end
$var wire 1 G Sub_C2|Full_Adder|a0|S~0_combout $end
$var wire 1 H ZER~0_combout $end
$var wire 1 I A[2]~input_o $end
$var wire 1 J B[2]~input_o $end
$var wire 1 K Sub_C2|Full_Adder|a1|C_out~0_combout $end
$var wire 1 L Sub_C2|Full_Adder|a2|S~combout $end
$var wire 1 M A[3]~input_o $end
$var wire 1 N B[3]~input_o $end
$var wire 1 O Sub_C2|Full_Adder|a3|S~0_combout $end
$var wire 1 P Sub_C2|Full_Adder|a3|S~1_combout $end
$var wire 1 Q Sub_C2|Full_Adder|a2|C_out~0_combout $end
$var wire 1 R Sub_C2|OVERFLOW~0_combout $end
$var wire 1 S ZER~1_combout $end
$var wire 1 T res_bin~7_combout $end
$var wire 1 U res_bin~13_combout $end
$var wire 1 V res_bin~8_combout $end
$var wire 1 W ZER~2_combout $end
$var wire 1 X res_bin~9_combout $end
$var wire 1 Y res_bin~6_combout $end
$var wire 1 Z Equal0~2_combout $end
$var wire 1 [ res_bin~14_combout $end
$var wire 1 \ res_bin~10_combout $end
$var wire 1 ] res_bin~11_combout $end
$var wire 1 ^ res_bin~12_combout $end
$var wire 1 _ res_bin~4_combout $end
$var wire 1 ` res_bin~5_combout $end
$var wire 1 a res_bin~15_combout $end
$var wire 1 b ZER~3_combout $end
$var wire 1 c ZER~4_combout $end
$var wire 1 d Add_C2|Full_Adder|a1|C_out~0_combout $end
$var wire 1 e Add_C2|Full_Adder|a2|C_out~0_combout $end
$var wire 1 f ZER~5_combout $end
$var wire 1 g ZER~6_combout $end
$var wire 1 h ZER~7_combout $end
$var wire 1 i NEG~0_combout $end
$var wire 1 j Equal0~1_combout $end
$var wire 1 k Add_C2|OVERFLOW~0_combout $end
$var wire 1 l Add_C2|Full_Adder|a3|S~0_combout $end
$var wire 1 m NEG~1_combout $end
$var wire 1 n OVER~0_combout $end
$var wire 1 o Sub_C2|Full_Adder|a3|C_out~0_combout $end
$var wire 1 p Add_C2|Full_Adder|a3|C_out~0_combout $end
$var wire 1 q COUT~0_combout $end
$var wire 1 r RESULT~10_combout $end
$var wire 1 s RESULT~4_combout $end
$var wire 1 t Add_C2|Full_Adder|a1|S~combout $end
$var wire 1 u RESULT~5_combout $end
$var wire 1 v RESULT~6_combout $end
$var wire 1 w RESULT~7_combout $end
$var wire 1 x RESULT~8_combout $end
$var wire 1 y RESULT~9_combout $end
$var wire 1 z res_bin [3] $end
$var wire 1 { res_bin [2] $end
$var wire 1 | res_bin [1] $end
$var wire 1 } res_bin [0] $end
$upscope $end
$upscope $end
$enddefinitions $end
#0
$dumpvars
b1000 !
b1000 "
0#
0$
b111 %
0&
0'
0(
1,
1+
1*
1)
0-
0.
1/
x0
11
12
13
04
05
06
07
08
09
1:
1;
1<
1=
1>
1?
1@
0A
0B
0C
0D
0E
1F
0G
0H
0I
0J
1K
1L
1M
1N
0O
1P
1Q
0R
0S
1T
0U
1V
0W
0X
0Y
0Z
0[
1\
1]
1^
0_
1`
1a
0b
1c
0d
0e
0f
0g
0h
1i
0j
1k
0l
1m
0n
1o
1p
0q
1r
1s
0t
1u
1v
1w
1x
1y
1}
1|
1{
1z
$end
#500
1#
15
#1000
0#
05
#1500
1#
15
#2000
0#
05
#2500
1#
15
#3000
0#
05
#3500
1#
15
#4000
0#
05
#4500
1#
15
#5000
0#
05
#5500
1#
15
#6000
0#
05
#6500
1#
15
#7000
0#
05
#7500
1#
15
#8000
0#
05
#8500
1#
15
#9000
0#
05
#9500
1#
15
#10000
b1001 "
0#
1E
05
0c
0`
1_
0K
1G
0F
0a
0Q
0P
0L
0}
0o
0r
0:
0,
#10500
1#
15
#11000
0#
05
#11500
1#
15
#12000
0#
05
#12500
1#
15
#13000
0#
05
#13500
1#
15
#14000
0#
05
#14500
1#
15
#15000
0#
05
#15500
1#
15
#16000
0#
05
#16500
1#
15
#17000
0#
05
#17500
1#
15
#18000
0#
05
#18500
1#
15
#19000
0#
05
#19500
1#
15
#20000
b1011 "
b1010 "
0#
0E
1C
05
1t
1`
0_
0G
1U
0T
1a
0V
1}
0|
0s
1W
1r
1:
1,
0u
0;
0+
#20500
1#
15
#21000
0#
05
#21500
1#
15
#22000
0#
05
#22500
1#
15
#23000
0#
05
#23500
1#
15
#24000
0#
05
#24500
1#
15
#25000
0#
05
#25500
1#
15
#26000
0#
05
#26500
1#
15
#27000
0#
05
#27500
1#
15
#28000
0#
05
#28500
1#
15
#29000
0#
05
#29500
1#
15
#30000
b1011 "
0#
1E
05
0`
1_
1G
1F
0a
0}
0r
0:
0,
#30500
1#
15
#31000
0#
05
#31500
1#
15
#32000
0#
05
#32500
1#
15
#33000
0#
05
#33500
1#
15
#34000
0#
05
#34500
1#
15
#35000
0#
05
#35500
1#
15
#36000
0#
05
#36500
1#
15
#37000
0#
05
#37500
1#
15
#38000
0#
05
#38500
1#
15
#39000
0#
05
#39500
1#
15
#40000
b1111 "
b1101 "
b1100 "
0#
0E
0C
1J
05
0t
1c
1`
0_
1K
0G
0U
1T
1Y
1X
1L
1a
0L
1V
0\
1}
1|
0{
1s
0W
0v
1r
1:
1,
1u
0w
0<
1;
1+
0*
#40500
1#
15
#41000
0#
05
#41500
1#
15
#42000
0#
05
#42500
1#
15
#43000
0#
05
#43500
1#
15
#44000
0#
05
#44500
1#
15
#45000
0#
05
#45500
1#
15
#46000
0#
05
#46500
1#
15
#47000
0#
05
#47500
1#
15
#48000
0#
05
#48500
1#
15
#49000
0#
05
#49500
1#
15
#50000
b1101 "
0#
1E
05
0c
0`
1_
0K
1G
0F
0a
1L
0}
0r
0:
0,
#50500
1#
15
#51000
0#
05
#51500
1#
15
#52000
0#
05
#52500
1#
15
#53000
0#
05
#53500
1#
15
#54000
0#
05
#54500
1#
15
#55000
0#
05
#55500
1#
15
#56000
0#
05
#56500
1#
15
#57000
0#
05
#57500
1#
15
#58000
0#
05
#58500
1#
15
#59000
0#
05
#59500
1#
15
#60000
b1111 "
b1110 "
0#
0E
1C
05
1t
1`
0_
0G
1U
0T
1a
0V
1}
0|
0s
1W
1r
1:
1,
0u
0;
0+
#60500
1#
15
#61000
0#
05
#61500
1#
15
#62000
0#
05
#62500
1#
15
#63000
0#
05
#63500
1#
15
#64000
0#
05
#64500
1#
15
#65000
0#
05
#65500
1#
15
#66000
0#
05
#66500
1#
15
#67000
0#
05
#67500
1#
15
#68000
0#
05
#68500
1#
15
#69000
0#
05
#69500
1#
15
#70000
b1111 "
0#
1E
05
0`
1_
1G
1F
0a
0}
0r
0:
0,
#70500
1#
15
#71000
0#
05
#71500
1#
15
#72000
0#
05
#72500
1#
15
#73000
0#
05
#73500
1#
15
#74000
0#
05
#74500
1#
15
#75000
0#
05
#75500
1#
15
#76000
0#
05
#76500
1#
15
#77000
0#
05
#77500
1#
15
#78000
0#
05
#78500
1#
15
#79000
0#
05
#79500
1#
15
#80000
b111 "
b11 "
b1 "
b0 "
0#
0E
0C
0J
0N
05
0t
1c
1`
0_
1K
0G
0U
1T
0Y
0X
0L
0p
1o
0k
1R
1O
1a
1Q
1L
1V
1\
1l
0^
1}
0R
1|
1{
0z
1s
0W
1v
0x
1r
1:
1,
1u
1w
0y
0=
1<
1;
1+
1*
0)
#80500
1#
15
#81000
0#
05
#81500
1#
15
#82000
0#
05
#82500
1#
15
#83000
0#
05
#83500
1#
15
#84000
0#
05
#84500
1#
15
#85000
0#
05
#85500
1#
15
#86000
0#
05
#86500
1#
15
#87000
0#
05
#87500
1#
15
#88000
0#
05
#88500
1#
15
#89000
0#
05
#89500
1#
15
#90000
b1 "
0#
1E
05
0c
0`
1_
0K
1G
0F
0a
0Q
1P
0L
0}
1R
0r
0:
0,
#90500
1#
15
#91000
0#
05
#91500
1#
15
#92000
0#
05
#92500
1#
15
#93000
0#
05
#93500
1#
15
#94000
0#
05
#94500
1#
15
#95000
0#
05
#95500
1#
15
#96000
0#
05
#96500
1#
15
#97000
0#
05
#97500
1#
15
#98000
0#
05
#98500
1#
15
#99000
0#
05
#99500
1#
15
#100000
b11 "
b10 "
0#
0E
1C
05
1t
1`
0_
0G
1U
0T
1a
0V
1}
0|
0s
1W
1r
1:
1,
0u
0;
0+
#100500
1#
15
#101000
0#
05
#101500
1#
15
#102000
0#
05
#102500
1#
15
#103000
0#
05
#103500
1#
15
#104000
0#
05
#104500
1#
15
#105000
0#
05
#105500
1#
15
#106000
0#
05
#106500
1#
15
#107000
0#
05
#107500
1#
15
#108000
0#
05
#108500
1#
15
#109000
0#
05
#109500
1#
15
#110000
b11 "
0#
1E
05
0`
1_
1G
1F
0a
0}
0r
0:
0,
#110500
1#
15
#111000
0#
05
#111500
1#
15
#112000
0#
05
#112500
1#
15
#113000
0#
05
#113500
1#
15
#114000
0#
05
#114500
1#
15
#115000
0#
05
#115500
1#
15
#116000
0#
05
#116500
1#
15
#117000
0#
05
#117500
1#
15
#118000
0#
05
#118500
1#
15
#119000
0#
05
#119500
1#
15
#120000
b111 "
b101 "
b100 "
0#
0E
0C
1J
05
0t
1c
1`
0_
1K
0G
0U
1T
1Y
1X
1L
1a
0L
1V
0\
1}
1|
0{
1s
0W
0v
1r
1:
1,
1u
0w
0<
1;
1+
0*
#120500
1#
15
#121000
0#
05
#121500
1#
15
#122000
0#
05
#122500
1#
15
#123000
0#
05
#123500
1#
15
#124000
0#
05
#124500
1#
15
#125000
0#
05
#125500
1#
15
#126000
0#
05
#126500
1#
15
#127000
0#
05
#127500
1#
15
#128000
0#
05
#128500
1#
15
#129000
0#
05
#129500
1#
15
#130000
b101 "
0#
1E
05
0c
0`
1_
0K
1G
0F
0a
1L
0}
0r
0:
0,
#130500
1#
15
#131000
0#
05
#131500
1#
15
#132000
0#
05
#132500
1#
15
#133000
0#
05
#133500
1#
15
#134000
0#
05
#134500
1#
15
#135000
0#
05
#135500
1#
15
#136000
0#
05
#136500
1#
15
#137000
0#
05
#137500
1#
15
#138000
0#
05
#138500
1#
15
#139000
0#
05
#139500
1#
15
#140000
b111 "
b110 "
0#
0E
1C
05
1t
1`
0_
0G
1U
0T
1a
0V
1}
0|
0s
1W
1r
1:
1,
0u
0;
0+
#140500
1#
15
#141000
0#
05
#141500
1#
15
#142000
0#
05
#142500
1#
15
#143000
0#
05
#143500
1#
15
#144000
0#
05
#144500
1#
15
#145000
0#
05
#145500
1#
15
#146000
0#
05
#146500
1#
15
#147000
0#
05
#147500
1#
15
#148000
0#
05
#148500
1#
15
#149000
0#
05
#149500
1#
15
#150000
b111 "
0#
1E
05
0`
1_
1G
1F
0a
0}
1b
0r
0:
0,
1h
16
1-
#150500
1#
15
#151000
0#
05
#151500
1#
15
#152000
0#
05
#152500
1#
15
#153000
0#
05
#153500
1#
15
#154000
0#
05
#154500
1#
15
#155000
0#
05
#155500
1#
15
#156000
0#
05
#156500
1#
15
#157000
0#
05
#157500
1#
15
#158000
0#
05
#158500
1#
15
#159000
0#
05
#159500
1#
15
#160000
b1001 !
b1111 "
b1011 "
b1001 "
b1000 "
0#
0E
0C
0J
1N
1D
05
0t
1K
0U
1T
0Y
0X
0L
1p
0o
1k
0R
0O
1Q
1L
1V
1\
0l
1^
1o
1|
1{
1z
1s
0W
1v
0b
1x
1u
1w
0h
1y
1=
06
1<
1;
1+
1*
0-
1)
#160500
1#
15
#161000
0#
05
#161500
1#
15
#162000
0#
05
#162500
1#
15
#163000
0#
05
#163500
1#
15
#164000
0#
05
#164500
1#
15
#165000
0#
05
#165500
1#
15
#166000
0#
05
#166500
1#
15
#167000
0#
05
#167500
1#
15
#168000
0#
05
#168500
1#
15
#169000
0#
05
#169500
1#
15
#170000
b1001 "
0#
1E
05
1t
1`
0G
1a
1}
1r
1:
1,
#170500
1#
15
#171000
0#
05
#171500
1#
15
#172000
0#
05
#172500
1#
15
#173000
0#
05
#173500
1#
15
#174000
0#
05
#174500
1#
15
#175000
0#
05
#175500
1#
15
#176000
0#
05
#176500
1#
15
#177000
0#
05
#177500
1#
15
#178000
0#
05
#178500
1#
15
#179000
0#
05
#179500
1#
15
#180000
b1011 "
b1010 "
0#
0E
1C
05
0`
0K
1G
0F
1U
0T
0a
0Q
0P
0L
0V
0}
0o
0|
0s
1W
0r
0:
0,
0u
0;
0+
#180500
1#
15
#181000
0#
05
#181500
1#
15
#182000
0#
05
#182500
1#
15
#183000
0#
05
#183500
1#
15
#184000
0#
05
#184500
1#
15
#185000
0#
05
#185500
1#
15
#186000
0#
05
#186500
1#
15
#187000
0#
05
#187500
1#
15
#188000
0#
05
#188500
1#
15
#189000
0#
05
#189500
1#
15
#190000
b1011 "
0#
1E
05
0t
1d
1c
1`
0G
1a
1}
1r
1:
1,
#190500
1#
15
#191000
0#
05
#191500
1#
15
#192000
0#
05
#192500
1#
15
#193000
0#
05
#193500
1#
15
#194000
0#
05
#194500
1#
15
#195000
0#
05
#195500
1#
15
#196000
0#
05
#196500
1#
15
#197000
0#
05
#197500
1#
15
#198000
0#
05
#198500
1#
15
#199000
0#
05
#199500
1#
15
#200000
b1111 "
b1101 "
b1100 "
0#
0E
0C
1J
05
0d
0c
0`
1K
1G
1F
0U
1T
1l
1e
1Y
1X
1L
0l
0e
0a
0L
1V
0k
0\
1k
0}
1|
0{
1s
0W
0v
0r
0:
0,
1u
0w
0<
1;
1+
0*
#200500
1#
15
#201000
0#
05
#201500
1#
15
#202000
0#
05
#202500
1#
15
#203000
0#
05
#203500
1#
15
#204000
0#
05
#204500
1#
15
#205000
0#
05
#205500
1#
15
#206000
0#
05
#206500
1#
15
#207000
0#
05
#207500
1#
15
#208000
0#
05
#208500
1#
15
#209000
0#
05
#209500
1#
15
#210000
b1101 "
0#
1E
05
1t
1`
0G
1a
1}
1r
1:
1,
#210500
1#
15
#211000
0#
05
#211500
1#
15
#212000
0#
05
#212500
1#
15
#213000
0#
05
#213500
1#
15
#214000
0#
05
#214500
1#
15
#215000
0#
05
#215500
1#
15
#216000
0#
05
#216500
1#
15
#217000
0#
05
#217500
1#
15
#218000
0#
05
#218500
1#
15
#219000
0#
05
#219500
1#
15
#220000
b1111 "
b1110 "
0#
0E
1C
05
0`
0K
1G
0F
1U
0T
0a
1L
0V
0}
0|
0s
1W
0r
0:
0,
0u
0;
0+
#220500
1#
15
#221000
0#
05
#221500
1#
15
#222000
0#
05
#222500
1#
15
#223000
0#
05
#223500
1#
15
#224000
0#
05
#224500
1#
15
#225000
0#
05
#225500
1#
15
#226000
0#
05
#226500
1#
15
#227000
0#
05
#227500
1#
15
#228000
0#
05
#228500
1#
15
#229000
0#
05
#229500
1#
15
#230000
b1111 "
0#
1E
05
0t
1d
1c
1`
0G
1l
1e
1a
0k
1}
1r
1:
1,
#230500
1#
15
#231000
0#
05
#231500
1#
15
#232000
0#
05
#232500
1#
15
#233000
0#
05
#233500
1#
15
#234000
0#
05
#234500
1#
15
#235000
0#
05
#235500
1#
15
#236000
0#
05
#236500
1#
15
#237000
0#
05
#237500
1#
15
#238000
0#
05
#238500
1#
15
#239000
0#
05
#239500
1#
15
#240000
b111 "
b11 "
b1 "
b0 "
0#
0E
0C
0J
0N
05
0d
0c
0`
1K
1G
1F
0U
1T
0l
0e
0Y
0X
0L
1o
1f
1R
1O
1l
0f
0a
1Q
1L
1V
0p
1\
0^
0}
0R
1|
1{
0z
1s
0W
1v
0x
0r
0:
0,
1u
1w
0y
0=
1<
1;
1+
1*
0)
#240500
1#
15
#241000
0#
05
#241500
1#
15
#242000
0#
05
#242500
1#
15
#243000
0#
05
#243500
1#
15
#244000
0#
05
#244500
1#
15
#245000
0#
05
#245500
1#
15
#246000
0#
05
#246500
1#
15
#247000
0#
05
#247500
1#
15
#248000
0#
05
#248500
1#
15
#249000
0#
05
#249500
1#
15
#250000
b1 "
0#
1E
05
1t
1`
0G
1a
1}
1r
1:
1,
#250500
1#
15
#251000
0#
05
#251500
1#
15
#252000
0#
05
#252500
1#
15
#253000
0#
05
#253500
1#
15
#254000
0#
05
#254500
1#
15
#255000
0#
05
#255500
1#
15
#256000
0#
05
#256500
1#
15
#257000
0#
05
#257500
1#
15
#258000
0#
05
#258500
1#
15
#259000
0#
05
#259500
1#
15
#260000
b11 "
b10 "
0#
0E
1C
05
0`
0K
1G
0F
1U
0T
0a
0Q
1P
0L
0V
0}
1R
0|
0s
1W
0r
0:
0,
0u
0;
0+
#260500
1#
15
#261000
0#
05
#261500
1#
15
#262000
0#
05
#262500
1#
15
#263000
0#
05
#263500
1#
15
#264000
0#
05
#264500
1#
15
#265000
0#
05
#265500
1#
15
#266000
0#
05
#266500
1#
15
#267000
0#
05
#267500
1#
15
#268000
0#
05
#268500
1#
15
#269000
0#
05
#269500
1#
15
#270000
b11 "
0#
1E
05
0t
1d
1c
1`
0G
1a
1}
1r
1:
1,
#270500
1#
15
#271000
0#
05
#271500
1#
15
#272000
0#
05
#272500
1#
15
#273000
0#
05
#273500
1#
15
#274000
0#
05
#274500
1#
15
#275000
0#
05
#275500
1#
15
#276000
0#
05
#276500
1#
15
#277000
0#
05
#277500
1#
15
#278000
0#
05
#278500
1#
15
#279000
0#
05
#279500
1#
15
#280000
b111 "
b101 "
b100 "
0#
0E
0C
1J
05
0d
0c
0`
1K
1G
1F
0U
1T
0l
1e
1Y
1X
1L
1l
0e
0a
0L
1V
1p
0\
0p
0}
1|
0{
1b
1s
0W
0v
0r
0:
0b
0,
1h
1u
0w
0<
1;
16
1-
1+
0*
0h
06
0-
#280500
1#
15
#281000
0#
05
#281500
1#
15
#282000
0#
05
#282500
1#
15
#283000
0#
05
#283500
1#
15
#284000
0#
05
#284500
1#
15
#285000
0#
05
#285500
1#
15
#286000
0#
05
#286500
1#
15
#287000
0#
05
#287500
1#
15
#288000
0#
05
#288500
1#
15
#289000
0#
05
#289500
1#
15
#290000
b101 "
0#
1E
05
1t
1`
0G
1a
1}
1r
1:
1,
#290500
1#
15
#291000
0#
05
#291500
1#
15
#292000
0#
05
#292500
1#
15
#293000
0#
05
#293500
1#
15
#294000
0#
05
#294500
1#
15
#295000
0#
05
#295500
1#
15
#296000
0#
05
#296500
1#
15
#297000
0#
05
#297500
1#
15
#298000
0#
05
#298500
1#
15
#299000
0#
05
#299500
1#
15
#300000
b111 "
b110 "
0#
0E
1C
05
0`
0K
1G
0F
1U
0T
0a
1L
0V
0}
0|
0s
1W
0r
0:
1b
0,
0u
0;
0+
1h
16
1-
#300500
1#
15
#301000
0#
05
#301500
1#
15
#302000
0#
05
#302500
1#
15
#303000
0#
05
#303500
1#
15
#304000
0#
05
#304500
1#
15
#305000
0#
05
#305500
1#
15
#306000
0#
05
#306500
1#
15
#307000
0#
05
#307500
1#
15
#308000
0#
05
#308500
1#
15
#309000
0#
05
#309500
1#
15
#310000
b111 "
0#
1E
05
0t
1d
1c
1`
0G
0l
1e
1a
1p
1f
1}
0b
1r
1:
1,
0h
06
0-
#310500
1#
15
#311000
0#
05
#311500
1#
15
#312000
0#
05
#312500
1#
15
#313000
0#
05
#313500
1#
15
#314000
0#
05
#314500
1#
15
#315000
0#
05
#315500
1#
15
#316000
0#
05
#316500
1#
15
#317000
0#
05
#317500
1#
15
#318000
0#
05
#318500
1#
15
#319000
0#
05
#319500
1#
15
#320000
b1011 !
b1010 !
b1111 "
b1011 "
b1001 "
b1000 "
0#
0E
0C
0J
1N
0D
1B
05
1t
0d
0c
0_
1K
1l
0e
0Y
0X
0L
0o
0f
0R
0O
0l
1Q
1L
1k
1\
1^
1o
1{
1z
1v
1x
1w
1y
1=
1<
1*
1)
#320500
1#
15
#321000
0#
05
#321500
1#
15
#322000
0#
05
#322500
1#
15
#323000
0#
05
#323500
1#
15
#324000
0#
05
#324500
1#
15
#325000
0#
05
#325500
1#
15
#326000
0#
05
#326500
1#
15
#327000
0#
05
#327500
1#
15
#328000
0#
05
#328500
1#
15
#329000
0#
05
#329500
1#
15
#330000
b1001 "
0#
1E
05
0`
1_
1G
1F
0a
0}
0r
0:
0,
#330500
1#
15
#331000
0#
05
#331500
1#
15
#332000
0#
05
#332500
1#
15
#333000
0#
05
#333500
1#
15
#334000
0#
05
#334500
1#
15
#335000
0#
05
#335500
1#
15
#336000
0#
05
#336500
1#
15
#337000
0#
05
#337500
1#
15
#338000
0#
05
#338500
1#
15
#339000
0#
05
#339500
1#
15
#340000
b1011 "
b1010 "
0#
0E
1C
05
0t
1d
1c
1`
0_
0G
1T
1a
1V
1}
1|
1s
0W
1r
1:
1,
1u
1;
1+
#340500
1#
15
#341000
0#
05
#341500
1#
15
#342000
0#
05
#342500
1#
15
#343000
0#
05
#343500
1#
15
#344000
0#
05
#344500
1#
15
#345000
0#
05
#345500
1#
15
#346000
0#
05
#346500
1#
15
#347000
0#
05
#347500
1#
15
#348000
0#
05
#348500
1#
15
#349000
0#
05
#349500
1#
15
#350000
b1011 "
0#
1E
05
0c
0`
1_
0K
1G
0F
0a
0Q
0P
0L
0}
0o
0r
0:
0,
#350500
1#
15
#351000
0#
05
#351500
1#
15
#352000
0#
05
#352500
1#
15
#353000
0#
05
#353500
1#
15
#354000
0#
05
#354500
1#
15
#355000
0#
05
#355500
1#
15
#356000
0#
05
#356500
1#
15
#357000
0#
05
#357500
1#
15
#358000
0#
05
#358500
1#
15
#359000
0#
05
#359500
1#
15
#360000
b1111 "
b1101 "
b1100 "
0#
0E
0C
1J
05
1t
0d
1`
0_
1K
0G
0T
1l
1e
1Y
1X
1L
0l
0e
1a
0L
0V
0k
0\
1k
1}
0|
0{
0s
1W
0v
1r
1:
1,
0u
0w
0<
0;
0+
0*
#360500
1#
15
#361000
0#
05
#361500
1#
15
#362000
0#
05
#362500
1#
15
#363000
0#
05
#363500
1#
15
#364000
0#
05
#364500
1#
15
#365000
0#
05
#365500
1#
15
#366000
0#
05
#366500
1#
15
#367000
0#
05
#367500
1#
15
#368000
0#
05
#368500
1#
15
#369000
0#
05
#369500
1#
15
#370000
b1101 "
0#
1E
05
0`
1_
1G
1F
0a
0}
0r
0:
0,
#370500
1#
15
#371000
0#
05
#371500
1#
15
#372000
0#
05
#372500
1#
15
#373000
0#
05
#373500
1#
15
#374000
0#
05
#374500
1#
15
#375000
0#
05
#375500
1#
15
#376000
0#
05
#376500
1#
15
#377000
0#
05
#377500
1#
15
#378000
0#
05
#378500
1#
15
#379000
0#
05
#379500
1#
15
#380000
b1111 "
b1110 "
0#
0E
1C
05
0t
1d
1c
1`
0_
0G
1T
1l
1e
1a
1V
0k
1}
1|
1s
0W
1r
1:
1,
1u
1;
1+
#380500
1#
15
#381000
0#
05
#381500
1#
15
#382000
0#
05
#382500
1#
15
#383000
0#
05
#383500
1#
15
#384000
0#
05
#384500
1#
15
#385000
0#
05
#385500
1#
15
#386000
0#
05
#386500
1#
15
#387000
0#
05
#387500
1#
15
#388000
0#
05
#388500
1#
15
#389000
0#
05
#389500
1#
15
#390000
b1111 "
0#
1E
05
0c
0`
1_
0K
1G
0F
0a
1L
0}
0r
0:
0,
#390500
1#
15
#391000
0#
05
#391500
1#
15
#392000
0#
05
#392500
1#
15
#393000
0#
05
#393500
1#
15
#394000
0#
05
#394500
1#
15
#395000
0#
05
#395500
1#
15
#396000
0#
05
#396500
1#
15
#397000
0#
05
#397500
1#
15
#398000
0#
05
#398500
1#
15
#399000
0#
05
#399500
1#
15
#400000
b111 "
b11 "
b1 "
b0 "
0#
0E
0C
0J
0N
05
1t
0d
1`
0_
1K
0G
0T
0l
0e
0Y
0X
0L
1o
1R
1O
1l
1a
1Q
1L
0V
0p
1\
0^
1}
0R
0|
1{
0z
0s
1W
1v
0x
1r
1:
1,
0u
1w
0y
0=
1<
0;
0+
1*
0)
#400500
1#
15
#401000
0#
05
#401500
1#
15
#402000
0#
05
#402500
1#
15
#403000
0#
05
#403500
1#
15
#404000
0#
05
#404500
1#
15
#405000
0#
05
#405500
1#
15
#406000
0#
05
#406500
1#
15
#407000
0#
05
#407500
1#
15
#408000
0#
05
#408500
1#
15
#409000
0#
05
#409500
1#
15
#410000
b1 "
0#
1E
05
0`
1_
1G
1F
0a
0}
0r
0:
0,
#410500
1#
15
#411000
0#
05
#411500
1#
15
#412000
0#
05
#412500
1#
15
#413000
0#
05
#413500
1#
15
#414000
0#
05
#414500
1#
15
#415000
0#
05
#415500
1#
15
#416000
0#
05
#416500
1#
15
#417000
0#
05
#417500
1#
15
#418000
0#
05
#418500
1#
15
#419000
0#
05
#419500
1#
15
#420000
b11 "
b10 "
0#
0E
1C
05
0t
1d
1c
1`
0_
0G
1T
1a
1V
1}
1|
1s
0W
1r
1:
1,
1u
1;
1+
#420500
1#
15
#421000
0#
05
#421500
1#
15
#422000
0#
05
#422500
1#
15
#423000
0#
05
#423500
1#
15
#424000
0#
05
#424500
1#
15
#425000
0#
05
#425500
1#
15
#426000
0#
05
#426500
1#
15
#427000
0#
05
#427500
1#
15
#428000
0#
05
#428500
1#
15
#429000
0#
05
#429500
1#
15
#430000
b11 "
0#
1E
05
0c
0`
1_
0K
1G
0F
0a
0Q
1P
0L
0}
1R
0r
0:
0,
#430500
1#
15
#431000
0#
05
#431500
1#
15
#432000
0#
05
#432500
1#
15
#433000
0#
05
#433500
1#
15
#434000
0#
05
#434500
1#
15
#435000
0#
05
#435500
1#
15
#436000
0#
05
#436500
1#
15
#437000
0#
05
#437500
1#
15
#438000
0#
05
#438500
1#
15
#439000
0#
05
#439500
1#
15
#440000
b111 "
b101 "
b100 "
0#
0E
0C
1J
05
1t
0d
1`
0_
1K
0G
0T
0l
1e
1Y
1X
1L
1l
0e
1a
0L
0V
1p
0\
0p
1}
0|
0{
0s
1W
0v
1r
1:
1,
0u
0w
0<
0;
0+
0*
#440500
1#
15
#441000
0#
05
#441500
1#
15
#442000
0#
05
#442500
1#
15
#443000
0#
05
#443500
1#
15
#444000
0#
05
#444500
1#
15
#445000
0#
05
#445500
1#
15
#446000
0#
05
#446500
1#
15
#447000
0#
05
#447500
1#
15
#448000
0#
05
#448500
1#
15
#449000
0#
05
#449500
1#
15
#450000
b101 "
0#
1E
05
0`
1_
1G
1F
0a
0}
1b
0r
0:
0,
1h
16
1-
#450500
1#
15
#451000
0#
05
#451500
1#
15
#452000
0#
05
#452500
1#
15
#453000
0#
05
#453500
1#
15
#454000
0#
05
#454500
1#
15
#455000
0#
05
#455500
1#
15
#456000
0#
05
#456500
1#
15
#457000
0#
05
#457500
1#
15
#458000
0#
05
#458500
1#
15
#459000
0#
05
#459500
1#
15
#460000
b111 "
b110 "
0#
0E
1C
05
0t
1d
1c
1`
0_
0G
1T
0l
1e
1a
1V
1p
1f
1}
1|
0b
1s
0W
1r
1:
1,
0h
1u
1;
06
0-
1+
#460500
1#
15
#461000
0#
05
#461500
1#
15
#462000
0#
05
#462500
1#
15
#463000
0#
05
#463500
1#
15
#464000
0#
05
#464500
1#
15
#465000
0#
05
#465500
1#
15
#466000
0#
05
#466500
1#
15
#467000
0#
05
#467500
1#
15
#468000
0#
05
#468500
1#
15
#469000
0#
05
#469500
1#
15
#470000
b111 "
0#
1E
05
0c
0`
1_
0K
1G
0F
0f
0a
1L
0}
0r
0:
0,
#470500
1#
15
#471000
0#
05
#471500
1#
15
#472000
0#
05
#472500
1#
15
#473000
0#
05
#473500
1#
15
#474000
0#
05
#474500
1#
15
#475000
0#
05
#475500
1#
15
#476000
0#
05
#476500
1#
15
#477000
0#
05
#477500
1#
15
#478000
0#
05
#478500
1#
15
#479000
0#
05
#479500
1#
15
#480000
b1011 !
b1111 "
b1011 "
b1001 "
b1000 "
0#
0E
0C
0J
1N
1D
05
1t
0d
1K
0T
1l
0e
0Y
0X
0L
0o
0R
0O
0l
1Q
1L
0V
1k
1\
1^
1o
0|
1{
1z
0s
1W
1v
1x
0u
1w
1y
1=
1<
0;
0+
1*
1)
#480500
1#
15
#481000
0#
05
#481500
1#
15
#482000
0#
05
#482500
1#
15
#483000
0#
05
#483500
1#
15
#484000
0#
05
#484500
1#
15
#485000
0#
05
#485500
1#
15
#486000
0#
05
#486500
1#
15
#487000
0#
05
#487500
1#
15
#488000
0#
05
#488500
1#
15
#489000
0#
05
#489500
1#
15
