code/ULA/simulation/qsim/ULA.msim.vcd
$comment
	File created using the following command:
		vcd file ULA.msim.vcd -direction
$end
$date
	Tue Aug 31 20:29:14 2021
$end
$version
	ModelSim Version 2020.1
$end
$timescale
	1ps
$end

$scope module ULA_vlg_vec_tst $end
$var reg 1 ! CLK $end
$var reg 1 " PAUSE $end
$var reg 3 # SEL [2:0] $end
$var wire 1 $ COUT $end
$var wire 1 % NEG $end
$var wire 1 & OVER $end
$var wire 1 ' RESULT [3] $end
$var wire 1 ( RESULT [2] $end
$var wire 1 ) RESULT [1] $end
$var wire 1 * RESULT [0] $end
$var wire 1 + X [3] $end
$var wire 1 , X [2] $end
$var wire 1 - X [1] $end
$var wire 1 . X [0] $end
$var wire 1 / Y [3] $end
$var wire 1 0 Y [2] $end
$var wire 1 1 Y [1] $end
$var wire 1 2 Y [0] $end
$var wire 1 3 ZER $end

$scope module i1 $end
$var wire 1 4 gnd $end
$var wire 1 5 vcc $end
$var wire 1 6 unknown $end
$var tri1 1 7 devclrn $end
$var tri1 1 8 devpor $end
$var tri1 1 9 devoe $end
$var wire 1 : X[0]~output_o $end
$var wire 1 ; X[1]~output_o $end
$var wire 1 < X[2]~output_o $end
$var wire 1 = X[3]~output_o $end
$var wire 1 > Y[0]~output_o $end
$var wire 1 ? Y[1]~output_o $end
$var wire 1 @ Y[2]~output_o $end
$var wire 1 A Y[3]~output_o $end
$var wire 1 B ZER~output_o $end
$var wire 1 C NEG~output_o $end
$var wire 1 D OVER~output_o $end
$var wire 1 E COUT~output_o $end
$var wire 1 F RESULT[0]~output_o $end
$var wire 1 G RESULT[1]~output_o $end
$var wire 1 H RESULT[2]~output_o $end
$var wire 1 I RESULT[3]~output_o $end
$var wire 1 J CLK~input_o $end
$var wire 1 K CLK~inputclkctrl_outclk $end
$var wire 1 L PAUSE~input_o $end
$var wire 1 M counter|A_counter|counter_process:prescaler[11]~q $end
$var wire 1 N counter|A_counter|Add0~0_combout $end
$var wire 1 O counter|A_counter|counter_process:prescaler[0]~q $end
$var wire 1 P counter|A_counter|Add0~1 $end
$var wire 1 Q counter|A_counter|Add0~2_combout $end
$var wire 1 R counter|A_counter|counter_process:prescaler[1]~q $end
$var wire 1 S counter|A_counter|Add0~3 $end
$var wire 1 T counter|A_counter|Add0~4_combout $end
$var wire 1 U counter|A_counter|counter_process:prescaler[2]~q $end
$var wire 1 V counter|A_counter|Add0~5 $end
$var wire 1 W counter|A_counter|Add0~6_combout $end
$var wire 1 X counter|A_counter|counter_process:prescaler[3]~q $end
$var wire 1 Y counter|A_counter|Add0~7 $end
$var wire 1 Z counter|A_counter|Add0~8_combout $end
$var wire 1 [ counter|A_counter|counter_process:prescaler[4]~q $end
$var wire 1 \ counter|A_counter|Add0~9 $end
$var wire 1 ] counter|A_counter|Add0~10_combout $end
$var wire 1 ^ counter|A_counter|counter_process:prescaler[28]~q $end
$var wire 1 _ counter|A_counter|Add0~23 $end
$var wire 1 ` counter|A_counter|Add0~24_combout $end
$var wire 1 a counter|A_counter|counter_process:prescaler[12]~q $end
$var wire 1 b counter|A_counter|Add0~25 $end
$var wire 1 c counter|A_counter|Add0~26_combout $end
$var wire 1 d counter|A_counter|counter_process:prescaler[13]~q $end
$var wire 1 e counter|A_counter|Add0~27 $end
$var wire 1 f counter|A_counter|Add0~28_combout $end
$var wire 1 g counter|A_counter|counter_process:prescaler[14]~q $end
$var wire 1 h counter|A_counter|Add0~29 $end
$var wire 1 i counter|A_counter|Add0~30_combout $end
$var wire 1 j counter|A_counter|counter_process:prescaler[15]~q $end
$var wire 1 k counter|A_counter|Add0~31 $end
$var wire 1 l counter|A_counter|Add0~32_combout $end
$var wire 1 m counter|A_counter|counter_process:prescaler[16]~q $end
$var wire 1 n counter|A_counter|Add0~33 $end
$var wire 1 o counter|A_counter|Add0~34_combout $end
$var wire 1 p counter|A_counter|counter_process:prescaler[17]~q $end
$var wire 1 q counter|A_counter|Add0~35 $end
$var wire 1 r counter|A_counter|Add0~36_combout $end
$var wire 1 s counter|A_counter|counter_process:prescaler[18]~q $end
$var wire 1 t counter|A_counter|Add0~37 $end
$var wire 1 u counter|A_counter|Add0~38_combout $end
$var wire 1 v counter|A_counter|counter_process:prescaler[19]~q $end
$var wire 1 w counter|A_counter|Add0~39 $end
$var wire 1 x counter|A_counter|Add0~40_combout $end
$var wire 1 y counter|A_counter|counter_process:prescaler[20]~q $end
$var wire 1 z counter|A_counter|Add0~41 $end
$var wire 1 { counter|A_counter|Add0~42_combout $end
$var wire 1 | counter|A_counter|counter_process:prescaler[21]~q $end
$var wire 1 } counter|A_counter|Add0~43 $end
$var wire 1 ~ counter|A_counter|Add0~44_combout $end
$var wire 1 !! counter|A_counter|counter_process:prescaler[22]~q $end
$var wire 1 "! counter|A_counter|Add0~45 $end
$var wire 1 #! counter|A_counter|Add0~46_combout $end
$var wire 1 $! counter|A_counter|counter_process:prescaler[23]~q $end
$var wire 1 %! counter|A_counter|Add0~47 $end
$var wire 1 &! counter|A_counter|Add0~48_combout $end
$var wire 1 '! counter|A_counter|counter_process:prescaler[24]~q $end
$var wire 1 (! counter|A_counter|Add0~49 $end
$var wire 1 )! counter|A_counter|Add0~50_combout $end
$var wire 1 *! counter|A_counter|counter_process:prescaler[25]~q $end
$var wire 1 +! counter|A_counter|Add0~51 $end
$var wire 1 ,! counter|A_counter|Add0~52_combout $end
$var wire 1 -! counter|A_counter|counter_process:prescaler[26]~q $end
$var wire 1 .! counter|A_counter|Add0~53 $end
$var wire 1 /! counter|A_counter|Add0~54_combout $end
$var wire 1 0! counter|A_counter|counter_process:prescaler[27]~q $end
$var wire 1 1! counter|A_counter|Add0~55 $end
$var wire 1 2! counter|A_counter|Add0~56_combout $end
$var wire 1 3! counter|A_counter|counter_process:prescaler[29]~q $end
$var wire 1 4! counter|A_counter|Add0~57 $end
$var wire 1 5! counter|A_counter|Add0~58_combout $end
$var wire 1 6! counter|A_counter|counter_process:prescaler[30]~q $end
$var wire 1 7! counter|A_counter|Add0~59 $end
$var wire 1 8! counter|A_counter|Add0~60_combout $end
$var wire 1 9! counter|A_counter|Equal0~5_combout $end
$var wire 1 :! counter|A_counter|Equal0~6_combout $end
$var wire 1 ;! counter|A_counter|Equal0~7_combout $end
$var wire 1 <! counter|A_counter|Equal0~8_combout $end
$var wire 1 =! counter|A_counter|Equal0~9_combout $end
$var wire 1 >! counter|A_counter|prescaler~0_combout $end
$var wire 1 ?! counter|A_counter|counter_process:prescaler[5]~q $end
$var wire 1 @! counter|A_counter|Add0~11 $end
$var wire 1 A! counter|A_counter|Add0~12_combout $end
$var wire 1 B! counter|A_counter|counter_process:prescaler[6]~q $end
$var wire 1 C! counter|A_counter|Add0~13 $end
$var wire 1 D! counter|A_counter|Add0~14_combout $end
$var wire 1 E! counter|A_counter|counter_process:prescaler[7]~q $end
$var wire 1 F! counter|A_counter|Add0~15 $end
$var wire 1 G! counter|A_counter|Add0~16_combout $end
$var wire 1 H! counter|A_counter|counter_process:prescaler[8]~q $end
$var wire 1 I! counter|A_counter|Add0~17 $end
$var wire 1 J! counter|A_counter|Add0~18_combout $end
$var wire 1 K! counter|A_counter|counter_process:prescaler[9]~q $end
$var wire 1 L! counter|A_counter|Add0~19 $end
$var wire 1 M! counter|A_counter|Add0~20_combout $end
$var wire 1 N! counter|A_counter|counter_process:prescaler[10]~q $end
$var wire 1 O! counter|A_counter|Add0~21 $end
$var wire 1 P! counter|A_counter|Add0~22_combout $end
$var wire 1 Q! counter|A_counter|Equal0~2_combout $end
$var wire 1 R! counter|A_counter|Equal0~0_combout $end
$var wire 1 S! counter|A_counter|Equal0~1_combout $end
$var wire 1 T! counter|A_counter|Equal0~3_combout $end
$var wire 1 U! counter|A_counter|Equal0~4_combout $end
$var wire 1 V! counter|A_counter|counter_process:counter_output[0]~0_combout $end
$var wire 1 W! counter|A_counter|counter_process:counter_output[0]~q $end
$var wire 1 X! counter|A_counter|counter_process:counter_output[1]~0_combout $end
$var wire 1 Y! counter|A_counter|counter_process:counter_output[1]~1_combout $end
$var wire 1 Z! counter|A_counter|counter_process:counter_output[1]~q $end
$var wire 1 [! counter|A_counter|counter_process:counter_output[2]~0_combout $end
$var wire 1 \! counter|A_counter|counter_process:counter_output[2]~q $end
$var wire 1 ]! counter|A_counter|counter_process:counter_output[3]~0_combout $end
$var wire 1 ^! counter|A_counter|counter_process:counter_output[3]~q $end
$var wire 1 _! counter|B_counter|counter_process:prescaler[11]~q $end
$var wire 1 `! counter|B_counter|Add0~0_combout $end
$var wire 1 a! counter|B_counter|counter_process:prescaler[0]~q $end
$var wire 1 b! counter|B_counter|Add0~1 $end
$var wire 1 c! counter|B_counter|Add0~2_combout $end
$var wire 1 d! counter|B_counter|counter_process:prescaler[29]~q $end
$var wire 1 e! counter|B_counter|Add0~23 $end
$var wire 1 f! counter|B_counter|Add0~24_combout $end
$var wire 1 g! counter|B_counter|counter_process:prescaler[12]~q $end
$var wire 1 h! counter|B_counter|Add0~25 $end
$var wire 1 i! counter|B_counter|Add0~26_combout $end
$var wire 1 j! counter|B_counter|counter_process:prescaler[13]~q $end
$var wire 1 k! counter|B_counter|Add0~27 $end
$var wire 1 l! counter|B_counter|Add0~28_combout $end
$var wire 1 m! counter|B_counter|counter_process:prescaler[14]~q $end
$var wire 1 n! counter|B_counter|Add0~29 $end
$var wire 1 o! counter|B_counter|Add0~30_combout $end
$var wire 1 p! counter|B_counter|counter_process:prescaler[15]~q $end
$var wire 1 q! counter|B_counter|Add0~31 $end
$var wire 1 r! counter|B_counter|Add0~32_combout $end
$var wire 1 s! counter|B_counter|counter_process:prescaler[16]~q $end
$var wire 1 t! counter|B_counter|Add0~33 $end
$var wire 1 u! counter|B_counter|Add0~34_combout $end
$var wire 1 v! counter|B_counter|counter_process:prescaler[17]~q $end
$var wire 1 w! counter|B_counter|Add0~35 $end
$var wire 1 x! counter|B_counter|Add0~36_combout $end
$var wire 1 y! counter|B_counter|counter_process:prescaler[18]~q $end
$var wire 1 z! counter|B_counter|Add0~37 $end
$var wire 1 {! counter|B_counter|Add0~38_combout $end
$var wire 1 |! counter|B_counter|counter_process:prescaler[19]~q $end
$var wire 1 }! counter|B_counter|Add0~39 $end
$var wire 1 ~! counter|B_counter|Add0~40_combout $end
$var wire 1 !" counter|B_counter|counter_process:prescaler[20]~q $end
$var wire 1 "" counter|B_counter|Add0~41 $end
$var wire 1 #" counter|B_counter|Add0~42_combout $end
$var wire 1 $" counter|B_counter|counter_process:prescaler[21]~q $end
$var wire 1 %" counter|B_counter|Add0~43 $end
$var wire 1 &" counter|B_counter|Add0~44_combout $end
$var wire 1 '" counter|B_counter|counter_process:prescaler[22]~q $end
$var wire 1 (" counter|B_counter|Add0~45 $end
$var wire 1 )" counter|B_counter|Add0~46_combout $end
$var wire 1 *" counter|B_counter|counter_process:prescaler[23]~q $end
$var wire 1 +" counter|B_counter|Add0~47 $end
$var wire 1 ," counter|B_counter|Add0~48_combout $end
$var wire 1 -" counter|B_counter|counter_process:prescaler[24]~q $end
$var wire 1 ." counter|B_counter|Add0~49 $end
$var wire 1 /" counter|B_counter|Add0~50_combout $end
$var wire 1 0" counter|B_counter|counter_process:prescaler[25]~q $end
$var wire 1 1" counter|B_counter|Add0~51 $end
$var wire 1 2" counter|B_counter|Add0~52_combout $end
$var wire 1 3" counter|B_counter|counter_process:prescaler[26]~q $end
$var wire 1 4" counter|B_counter|Add0~53 $end
$var wire 1 5" counter|B_counter|Add0~54_combout $end
$var wire 1 6" counter|B_counter|counter_process:prescaler[27]~q $end
$var wire 1 7" counter|B_counter|Add0~55 $end
$var wire 1 8" counter|B_counter|Add0~56_combout $end
$var wire 1 9" counter|B_counter|counter_process:prescaler[28]~q $end
$var wire 1 :" counter|B_counter|Add0~57 $end
$var wire 1 ;" counter|B_counter|Add0~58_combout $end
$var wire 1 <" counter|B_counter|counter_process:prescaler[30]~q $end
$var wire 1 =" counter|B_counter|Add0~59 $end
$var wire 1 >" counter|B_counter|Add0~60_combout $end
$var wire 1 ?" counter|B_counter|Equal0~5_combout $end
$var wire 1 @" counter|B_counter|Equal0~6_combout $end
$var wire 1 A" counter|B_counter|Equal0~7_combout $end
$var wire 1 B" counter|B_counter|Equal0~8_combout $end
$var wire 1 C" counter|B_counter|Equal0~9_combout $end
$var wire 1 D" counter|B_counter|prescaler~0_combout $end
$var wire 1 E" counter|B_counter|counter_process:prescaler[1]~q $end
$var wire 1 F" counter|B_counter|Add0~3 $end
$var wire 1 G" counter|B_counter|Add0~4_combout $end
$var wire 1 H" counter|B_counter|counter_process:prescaler[2]~q $end
$var wire 1 I" counter|B_counter|Add0~5 $end
$var wire 1 J" counter|B_counter|Add0~6_combout $end
$var wire 1 K" counter|B_counter|counter_process:prescaler[3]~q $end
$var wire 1 L" counter|B_counter|Add0~7 $end
$var wire 1 M" counter|B_counter|Add0~8_combout $end
$var wire 1 N" counter|B_counter|counter_process:prescaler[4]~q $end
$var wire 1 O" counter|B_counter|Add0~9 $end
$var wire 1 P" counter|B_counter|Add0~10_combout $end
$var wire 1 Q" counter|B_counter|counter_process:prescaler[5]~q $end
$var wire 1 R" counter|B_counter|Add0~11 $end
$var wire 1 S" counter|B_counter|Add0~12_combout $end
$var wire 1 T" counter|B_counter|counter_process:prescaler[6]~q $end
$var wire 1 U" counter|B_counter|Add0~13 $end
$var wire 1 V" counter|B_counter|Add0~14_combout $end
$var wire 1 W" counter|B_counter|counter_process:prescaler[7]~q $end
$var wire 1 X" counter|B_counter|Add0~15 $end
$var wire 1 Y" counter|B_counter|Add0~16_combout $end
$var wire 1 Z" counter|B_counter|counter_process:prescaler[8]~q $end
$var wire 1 [" counter|B_counter|Add0~17 $end
$var wire 1 \" counter|B_counter|Add0~18_combout $end
$var wire 1 ]" counter|B_counter|counter_process:prescaler[9]~q $end
$var wire 1 ^" counter|B_counter|Add0~19 $end
$var wire 1 _" counter|B_counter|Add0~20_combout $end
$var wire 1 `" counter|B_counter|counter_process:prescaler[10]~q $end
$var wire 1 a" counter|B_counter|Add0~21 $end
$var wire 1 b" counter|B_counter|Add0~22_combout $end
$var wire 1 c" counter|B_counter|Equal0~2_combout $end
$var wire 1 d" counter|B_counter|Equal0~0_combout $end
$var wire 1 e" counter|B_counter|Equal0~3_combout $end
$var wire 1 f" counter|B_counter|Equal0~1_combout $end
$var wire 1 g" counter|B_counter|Equal0~4_combout $end
$var wire 1 h" counter|B_counter|counter_process:counter_output[0]~0_combout $end
$var wire 1 i" counter|B_counter|counter_process:counter_output[0]~q $end
$var wire 1 j" counter|B_counter|counter_process:counter_output[1]~0_combout $end
$var wire 1 k" counter|B_counter|counter_process:counter_output[1]~1_combout $end
$var wire 1 l" counter|B_counter|counter_process:counter_output[1]~q $end
$var wire 1 m" counter|B_counter|counter_process:counter_output[2]~0_combout $end
$var wire 1 n" counter|B_counter|counter_process:counter_output[2]~q $end
$var wire 1 o" counter|B_counter|counter_process:counter_output[3]~0_combout $end
$var wire 1 p" counter|B_counter|counter_process:counter_output[3]~q $end
$var wire 1 q" Sub_C2|Full_Adder|a0|S~0_combout $end
$var wire 1 r" SEL[2]~input_o $end
$var wire 1 s" SEL[0]~input_o $end
$var wire 1 t" res_bin~10_combout $end
$var wire 1 u" SEL[1]~input_o $end
$var wire 1 v" Equal0~2_combout $end
$var wire 1 w" res_bin~5_combout $end
$var wire 1 x" res_bin~11_combout $end
$var wire 1 y" Equal0~1_combout $end
$var wire 1 z" Equal0~1clkctrl_outclk $end
$var wire 1 {" res_bin~6_combout $end
$var wire 1 |" res_bin~4_combout $end
$var wire 1 }" res_bin~7_combout $end
$var wire 1 ~" res_bin~8_combout $end
$var wire 1 !# Sub_C2|Full_Adder|a3|S~0_combout $end
$var wire 1 "# res_bin~9_combout $end
$var wire 1 ## res_bin~2_combout $end
$var wire 1 $# res_bin~3_combout $end
$var wire 1 %# res_bin~12_combout $end
$var wire 1 &# ZER~0_combout $end
$var wire 1 '# ZER~1_combout $end
$var wire 1 (# Sub_C2|Full_Adder|a1|S~combout $end
$var wire 1 )# Sub_C2|Full_Adder|a1|C_out~0_combout $end
$var wire 1 *# Sub_C2|Full_Adder|a2|C_out~0_combout $end
$var wire 1 +# Sub_C2|OVERFLOW~0_combout $end
$var wire 1 ,# COUT~0_combout $end
$var wire 1 -# ZER~4_combout $end
$var wire 1 .# ZER~5_combout $end
$var wire 1 /# Add_C2|Full_Adder|a1|S~combout $end
$var wire 1 0# Add_C2|Full_Adder|a1|C_out~0_combout $end
$var wire 1 1# Add_C2|Full_Adder|a2|C_out~0_combout $end
$var wire 1 2# ZER~2_combout $end
$var wire 1 3# Equal0~0_combout $end
$var wire 1 4# ZER~3_combout $end
$var wire 1 5# ZER~6_combout $end
$var wire 1 6# NEG~1_combout $end
$var wire 1 7# NEG~0_combout $end
$var wire 1 8# NEG~2_combout $end
$var wire 1 9# OVER~0_combout $end
$var wire 1 :# OVER~1_combout $end
$var wire 1 ;# COUT~1_combout $end
$var wire 1 <# Sub_C2|Full_Adder|a3|C_out~0_combout $end
$var wire 1 =# COUT~2_combout $end
$var wire 1 ># RESULT~10_combout $end
$var wire 1 ?# RESULT~4_combout $end
$var wire 1 @# RESULT~5_combout $end
$var wire 1 A# RESULT~6_combout $end
$var wire 1 B# RESULT~7_combout $end
$var wire 1 C# RESULT~8_combout $end
$var wire 1 D# RESULT~9_combout $end
$var wire 1 E# res_bin [3] $end
$var wire 1 F# res_bin [2] $end
$var wire 1 G# res_bin [1] $end
$var wire 1 H# res_bin [0] $end
$upscope $end
$upscope $end
$enddefinitions $end
#0
$dumpvars
0!
0"
b0 #
0$
0%
1&
0*
0)
0(
0'
0.
0-
0,
1+
02
01
00
1/
03
04
15
x6
17
18
19
0:
0;
0<
1=
0>
0?
0@
1A
0B
0C
1D
0E
0F
0G
0H
0I
0J
0K
0L
0M
1N
0O
0P
0Q
0R
1S
0T
0U
0V
0W
0X
1Y
0Z
0[
0\
0]
0^
1_
0`
0a
0b
0c
0d
1e
0f
0g
0h
0i
0j
1k
0l
0m
0n
0o
0p
1q
0r
0s
0t
0u
0v
1w
0x
0y
0z
0{
0|
1}
0~
0!!
0"!
0#!
0$!
1%!
0&!
0'!
0(!
0)!
0*!
1+!
0,!
0-!
0.!
0/!
00!
11!
02!
03!
04!
05!
06!
17!
08!
19!
1:!
1;!
1<!
1=!
0>!
0?!
1@!
0A!
0B!
0C!
0D!
0E!
1F!
0G!
0H!
0I!
0J!
0K!
1L!
0M!
0N!
0O!
0P!
1Q!
0R!
0S!
1T!
0U!
0V!
0W!
0X!
0Y!
0Z!
0[!
0\!
0]!
0^!
0_!
1`!
0a!
0b!
0c!
0d!
1e!
0f!
0g!
0h!
0i!
0j!
1k!
0l!
0m!
0n!
0o!
0p!
1q!
0r!
0s!
0t!
0u!
0v!
1w!
0x!
0y!
0z!
0{!
0|!
1}!
0~!
0!"
0""
0#"
0$"
1%"
0&"
0'"
0("
0)"
0*"
1+"
0,"
0-"
0."
0/"
00"
11"
02"
03"
04"
05"
06"
17"
08"
09"
0:"
0;"
0<"
1="
0>"
1?"
1@"
1A"
1B"
1C"
0D"
0E"
1F"
0G"
0H"
0I"
0J"
0K"
1L"
0M"
0N"
0O"
0P"
0Q"
1R"
0S"
0T"
0U"
0V"
0W"
1X"
0Y"
0Z"
0["
0\"
0]"
1^"
0_"
0`"
0a"
0b"
1c"
0d"
1e"
1f"
0g"
0h"
0i"
0j"
0k"
0l"
0m"
0n"
0o"
0p"
0q"
0r"
0s"
1t"
0u"
0v"
0w"
1x"
1y"
1z"
1{"
0|"
1}"
0~"
0!#
1"#
1##
1$#
1%#
0&#
0'#
1(#
1)#
1*#
0+#
0,#
1-#
0.#
0/#
00#
01#
02#
13#
04#
05#
16#
17#
18#
19#
1:#
0;#
1<#
0=#
0>#
0?#
0@#
xA#
0B#
xC#
0D#
xH#
xG#
xF#
xE#
$end
#10000
1!
1J
1K
1a!
1O
1b!
1P
0`!
0N
1c!
1R!
1Q
1d"
0R!
1D"
1g"
1h"
0D"
#20000
0!
0J
0K
#30000
1!
1J
1K
0a!
1R
0O
1i"
1>
0b!
0S
0P
0)#
0(#
1q"
1j"
12
1`!
0Q
1N
1>#
0h"
1F
0c!
1S
0-#
0*#
0x"
0d"
1*
1T
1Q
1k"
0<#
0g"
0T
0j"
1h"
0k"
#40000
0!
0J
0K
#50000
1!
1J
1K
1a!
1O
1b!
1P
0`!
0N
1c!
0S
0Q
1d"
1R!
1D"
1T
1g"
0R!
1j"
0h"
0D"
1k"
#60000
0!
0J
0K
#70000
1!
1J
1K
0a!
1U
0R
0O
1l"
0i"
0>
1?
0b!
1V
1S
0P
1/#
0##
0q"
0j"
11
02
1`!
0T
1Q
1N
1m"
0k"
0>#
1h"
0F
0c!
0V
0%#
1x"
0d"
0*
1W
1T
0Q
1@#
0m"
1k"
1G
0g"
1)
0W
0h"
#80000
0!
0J
0K
#90000
1!
1J
1K
1a!
1O
1b!
1P
0`!
0N
1c!
1Q
1d"
1D"
1g"
1h"
0D"
#100000
0!
0J
0K
#110000
1!
1J
1K
0a!
1R
0O
1i"
1>
0b!
0S
0P
1(#
1q"
1j"
12
1`!
0Q
1N
1>#
0h"
1F
0c!
1V
1S
0x"
0d"
1*
0T
1Q
1m"
0k"
0V
0g"
1W
1T
0j"
0W
1h"
0m"
1k"
#120000
0!
0J
0K
#130000
1!
1J
1K
1a!
1O
1b!
1P
0`!
0N
1c!
0S
0Q
1d"
1V
1D"
0T
1g"
1R!
1W
1j"
0R!
0h"
0D"
1m"
0k"
#140000
0!
0J
0K
#150000
1!
1J
1K
0a!
1X
0U
0R
0O
1n"
0l"
0i"
0>
0?
1@
0b!
0Y
0V
1S
0P
1|"
0/#
1)#
1##
0q"
0j"
10
01
02
1`!
0W
1T
1Q
1N
1k"
0>#
1h"
0F
0c!
1Y
0}"
1%#
1x"
0d"
0*
1Z
1W
0T
0Q
1B#
0@#
0k"
0G
1H
0g"
1(
0)
0Z
0h"
#160000
0!
0J
0K
#170000
1!
1J
1K
1a!
1O
1b!
1P
0`!
0N
1c!
1Q
1d"
1D"
1g"
1h"
0D"
#180000
0!
0J
0K
#190000
1!
1J
1K
0a!
1R
0O
1i"
1>
0b!
0S
0P
0)#
0(#
1q"
1j"
12
1`!
0Q
1N
1>#
0h"
1F
0c!
1S
0x"
0d"
1*
1T
1Q
1k"
0g"
0T
0j"
1h"
0k"
#200000
0!
0J
0K
#210000
1!
1J
1K
1a!
1O
1b!
1P
0`!
0N
1c!
0S
0Q
1d"
1D"
1T
1g"
1j"
0h"
0D"
1k"
#220000
0!
0J
0K
#230000
1!
1J
1K
0a!
1U
0R
0O
1l"
0i"
0>
1?
0b!
1V
1S
0P
1/#
0##
0q"
0j"
11
02
1`!
0T
1Q
1N
1o"
0m"
0k"
0>#
1h"
0F
0c!
0Y
0V
0%#
1x"
0d"
0*
0W
1T
0Q
1@#
0o"
1m"
1k"
1G
1Y
0g"
1)
1Z
1W
0Z
0h"
#240000
0!
0J
0K
#250000
1!
1J
1K
1a!
1O
1b!
1P
0`!
0N
1c!
1Q
1d"
1D"
1g"
1h"
0D"
#260000
0!
0J
0K
#270000
1!
1J
1K
0a!
1R
0O
1i"
1>
0b!
0S
0P
1(#
1q"
1j"
12
1`!
0Q
1N
1>#
0h"
1F
0c!
1V
1S
0x"
0d"
1*
0T
1Q
1o"
0m"
0k"
0Y
0V
0g"
0W
1T
1Y
0j"
1Z
1W
1h"
0Z
0o"
1m"
1k"
#280000
0!
0J
0K
#290000
1!
1J
1K
1a!
1O
1b!
1P
0`!
0N
1c!
0S
0Q
1d"
1V
1D"
0T
1g"
0Y
0W
1j"
1R!
0h"
0D"
1Z
1o"
0m"
0k"
#300000
0!
0J
0K
#310000
1!
1J
1K
1p"
0a!
1[
0X
0U
0R
0O
0n"
0l"
0i"
0>
0?
0@
0A
1<#
1;#
09#
07#
1+#
1!#
0b!
1\
1Y
0V
1S
0P
0|"
0/#
1)#
1##
0q"
0j"
0/
00
01
02
1`!
0Z
1W
1T
1Q
1N
1k"
0>#
1h"
0F
08#
0"#
0c!
1]
0\
1}"
1*#
1%#
1x"
0d"
0R!
0*
1=#
0:#
1D#
1Z
0W
0T
0Q
0B#
0@#
0k"
0G
0H
1I
0D
1E
1C
0]
0+#
0g"
1%
1$
0&
1'
0(
0)
1>!
0>!
0h"
#320000
0!
0J
0K
#330000
1!
1J
1K
1a!
1O
1b!
1P
0`!
0N
1c!
1R!
1Q
1d"
0R!
1D"
1g"
1h"
0D"
#340000
0!
0J
0K
#350000
1!
1J
1K
0a!
1R
0O
1i"
1>
0b!
0S
0P
0)#
0(#
1q"
1j"
12
1`!
0Q
1N
1>#
0h"
1F
0c!
1S
0*#
0x"
0d"
1*
1T
1Q
1k"
1+#
0g"
0T
0j"
1h"
0k"
#360000
0!
0J
0K
#370000
1!
1J
1K
1a!
1O
1b!
1P
0`!
0N
1c!
0S
0Q
1d"
1R!
1D"
1T
1g"
0R!
1j"
0h"
0D"
1k"
#380000
0!
0J
0K
#390000
1!
1J
1K
0a!
1U
0R
0O
1l"
0i"
0>
1?
0b!
1V
1S
0P
1/#
0##
0q"
0j"
11
02
1`!
0T
1Q
1N
1m"
0k"
0>#
1h"
0F
0c!
0V
0%#
1x"
0d"
0*
1W
1T
0Q
1@#
0m"
1k"
1G
0g"
1)
0W
0h"
#400000
0!
0J
0K
#410000
1!
1J
1K
1a!
1O
1b!
1P
0`!
0N
1c!
1Q
1d"
1D"
1g"
1h"
0D"
#420000
0!
0J
0K
#430000
1!
1J
1K
0a!
1R
0O
1i"
1>
0b!
0S
0P
1(#
1q"
1j"
12
1`!
0Q
1N
1>#
0h"
1F
0c!
1V
1S
0x"
0d"
1*
0T
1Q
1m"
0k"
0V
0g"
1W
1T
0j"
0W
1h"
0m"
1k"
#440000
0!
0J
0K
#450000
1!
1J
1K
1a!
1O
1b!
1P
0`!
0N
1c!
0S
0Q
1d"
1V
1D"
0T
1g"
1R!
1W
1j"
0R!
0h"
0D"
1m"
0k"
#460000
0!
0J
0K
#470000
1!
1J
1K
0a!
1X
0U
0R
0O
1n"
0l"
0i"
0>
0?
1@
0b!
0Y
0V
1S
0P
1-#
1|"
0/#
1)#
1##
0q"
0j"
10
01
02
1`!
0W
1T
1Q
1N
1k"
0>#
1h"
0F
0c!
1\
1Y
0}"
0-#
1%#
1x"
0d"
0*
0Z
1W
0T
0Q
1B#
0@#
0k"
0G
1H
1]
0\
0g"
1(
0)
1Z
0]
1>!
0h"
0>!
#480000
0!
0J
0K
#490000
1!
1J
1K
1a!
1O
1b!
1P
0`!
0N
1c!
1Q
1d"
1D"
1g"
1h"
0D"
#500000
0!
0J
0K
#510000
1!
1J
1K
0a!
1R
0O
1i"
1>
0b!
0S
0P
0)#
0(#
1q"
1j"
12
1`!
0Q
1N
1>#
0h"
1F
0c!
1S
1-#
0x"
0d"
1*
1T
1Q
1k"
0g"
0T
0j"
1h"
0k"
#520000
0!
0J
0K
#530000
1!
1J
1K
1a!
1O
1b!
1P
0`!
0N
1c!
0S
0Q
1d"
1D"
1T
1g"
1j"
0h"
0D"
1k"
#540000
0!
0J
0K
#550000
1!
1J
1K
0a!
1U
0R
0O
1l"
0i"
0>
1?
0b!
1V
1S
0P
1/#
0##
0q"
0j"
11
02
1`!
0T
1Q
1N
0o"
0m"
0k"
0>#
1h"
0F
0c!
0Y
0V
0%#
1x"
0d"
0*
0W
1T
0Q
1@#
1o"
1m"
1k"
1G
1\
1Y
0g"
1)
0Z
1W
1]
0\
1Z
0h"
0]
1>!
0>!
#560000
0!
0J
0K
#570000
1!
1J
1K
1a!
1O
1b!
1P
0`!
0N
1c!
1Q
1d"
1D"
1g"
1h"
0D"
#580000
0!
0J
0K
#590000
1!
1J
1K
0a!
1R
0O
1i"
1>
0b!
0S
0P
1(#
1q"
1j"
12
1`!
0Q
1N
1>#
0h"
1F
0c!
1V
1S
0x"
0d"
1*
0T
1Q
0o"
0m"
0k"
0Y
0V
0g"
0W
1T
1\
1Y
0j"
0Z
1W
1h"
1]
0\
1Z
1o"
1m"
1k"
0]
1>!
0>!
#600000
1"
0!
1L
0J
0K
#610000
1!
1J
1K
#620000
0!
0J
0K
#630000
1!
1J
1K
#640000
0!
0J
0K
#650000
1!
1J
1K
#660000
0!
0J
0K
#670000
1!
1J
1K
#680000
0!
0J
0K
#690000
1!
1J
1K
#700000
0!
0J
0K
#710000
1!
1J
1K
#720000
0"
0!
0L
0J
0K
#730000
1!
1J
1K
1a!
1O
1b!
1P
0`!
0N
1c!
0S
0Q
1d"
1V
1D"
0T
1g"
0Y
0W
1j"
1\
1R!
0h"
0D"
0Z
1]
0o"
0m"
0k"
1S!
1>!
1U!
1V!
0>!
#740000
0!
0J
0K
#750000
1!
1J
1K
0p"
0a!
0[
0X
0U
0R
0O
0n"
0l"
0i"
1W!
1:
0>
0?
0@
1A
0<#
0;#
19#
17#
0+#
0!#
0b!
0\
1Y
0V
1S
0P
0-#
0|"
0/#
1)#
1##
0t"
0j"
1X!
1/
00
01
02
1.
1`!
1Z
1W
1T
1Q
1N
1k"
1h"
0V!
18#
1-#
1"#
0c!
0]
1}"
1*#
1%#
0d"
0S!
0R!
0=#
1:#
0D#
0Z
0W
0T
0Q
0B#
0@#
0k"
1Y!
0G
0H
0I
1D
0E
0C
1<#
0g"
0U!
0%
0$
1&
0'
0(
0)
0X!
0h"
1V!
0Y!
#760000
0!
0J
0K
#770000
1!
1J
1K
1a!
1O
1b!
1P
0`!
0N
1c!
1R!
1Q
1d"
0R!
1D"
1g"
1h"
0D"
#780000
0!
0J
0K
