code/FA_4_bits/simulation/qsim/FA_4_bits.msim.vcd
$comment
	File created using the following command:
		vcd file FA_4_bits.msim.vcd -direction
$end
$date
	Tue Aug 31 21:13:22 2021
$end
$version
	ModelSim Version 2020.1
$end
$timescale
	1ps
$end

$scope module FA_4_bits_vlg_vec_tst $end
$var reg 1 ! cin $end
$var reg 4 " x [3:0] $end
$var reg 4 # y [3:0] $end
$var wire 1 $ cout $end
$var wire 1 % cout_1 $end
$var wire 1 & z [3] $end
$var wire 1 ' z [2] $end
$var wire 1 ( z [1] $end
$var wire 1 ) z [0] $end

$scope module i1 $end
$var wire 1 * gnd $end
$var wire 1 + vcc $end
$var wire 1 , unknown $end
$var tri1 1 - devclrn $end
$var tri1 1 . devpor $end
$var tri1 1 / devoe $end
$var wire 1 0 cout~output_o $end
$var wire 1 1 cout_1~output_o $end
$var wire 1 2 z[0]~output_o $end
$var wire 1 3 z[1]~output_o $end
$var wire 1 4 z[2]~output_o $end
$var wire 1 5 z[3]~output_o $end
$var wire 1 6 x[3]~input_o $end
$var wire 1 7 y[3]~input_o $end
$var wire 1 8 x[2]~input_o $end
$var wire 1 9 y[2]~input_o $end
$var wire 1 : x[1]~input_o $end
$var wire 1 ; y[1]~input_o $end
$var wire 1 < y[0]~input_o $end
$var wire 1 = x[0]~input_o $end
$var wire 1 > cin~input_o $end
$var wire 1 ? a0|C_out~0_combout $end
$var wire 1 @ a1|C_out~0_combout $end
$var wire 1 A a2|C_out~0_combout $end
$var wire 1 B a3|C_out~0_combout $end
$var wire 1 C a0|S~0_combout $end
$var wire 1 D a1|S~combout $end
$var wire 1 E a2|S~combout $end
$var wire 1 F a3|S~combout $end
$upscope $end
$upscope $end
$enddefinitions $end
#0
$dumpvars
0!
b1000 "
b1000 #
1$
0%
0)
0(
0'
0&
0*
1+
x,
1-
1.
1/
10
01
02
03
04
05
16
17
08
09
0:
0;
0<
0=
0>
0?
0@
0A
1B
0C
0D
0E
0F
$end
#10000
b1001 "
1=
1C
12
1)
#20000
b1011 "
b1010 "
0=
1:
0C
1D
13
02
0)
1(
#30000
b1011 "
1=
1C
12
1)
#40000
b1111 "
b1101 "
b1100 "
0=
0:
18
0C
0D
1E
14
03
02
0)
0(
1'
#50000
b1101 "
1=
1C
12
1)
#60000
b1111 "
b1110 "
0=
1:
0C
1D
13
02
0)
1(
#70000
b1111 "
1=
1C
12
1)
#80000
b111 "
b11 "
b1 "
b0 "
0=
0:
08
06
0C
0D
0E
1F
0B
00
15
04
03
02
0)
0(
0'
1&
0$
#90000
b1 "
1=
1C
12
1)
#100000
b11 "
b10 "
0=
1:
0C
1D
13
02
0)
1(
#110000
b11 "
1=
1C
12
1)
#120000
b111 "
b101 "
b100 "
0=
0:
18
0C
0D
1E
14
03
02
0)
0(
1'
#130000
b101 "
1=
1C
12
1)
#140000
b111 "
b110 "
0=
1:
0C
1D
13
02
0)
1(
#150000
b111 "
1=
1C
12
1)
#160000
b1001 #
b1111 "
b1011 "
b1001 "
b1000 "
0=
0:
08
16
1<
0D
0E
0F
1B
10
05
04
03
0(
0'
0&
1$
#170000
b1001 "
1=
1?
0C
02
0)
1D
13
1(
#180000
b1011 "
b1010 "
0=
1:
0?
1@
1C
0D
03
12
0@
1)
0(
1D
1E
14
13
1(
1'
0E
04
0'
#190000
b1011 "
1=
1?
0C
02
1@
0)
0D
03
0(
1E
14
1'
#200000
b1111 "
b1101 "
b1100 "
0=
0:
18
0?
0@
1C
1D
0E
1A
11
04
13
12
1)
1(
0'
1%
0D
1E
0A
1F
15
01
14
03
0(
1'
0%
1&
0F
05
0&
#210000
b1101 "
1=
1?
0C
02
0)
1D
13
1(
#220000
b1111 "
b1110 "
0=
1:
0?
1@
1C
0D
03
12
0@
1)
0(
1D
0E
1A
11
04
13
1(
0'
1%
1E
0A
1F
15
01
14
1'
0%
1&
0F
05
0&
#230000
b1111 "
1=
1?
0C
02
1@
0)
0D
03
0(
0E
1A
11
04
0'
1%
1F
15
1&
#240000
b111 "
b11 "
b1 "
b0 "
0=
0:
08
06
0?
0@
1C
1D
1E
0A
0F
05
01
14
13
12
1)
1(
1'
0%
0&
0D
0E
1F
0B
00
15
04
03
0(
0'
1&
0$
#250000
b1 "
1=
1?
0C
02
0)
1D
13
1(
#260000
b11 "
b10 "
0=
1:
0?
1@
1C
0D
03
12
0@
1)
0(
1D
1E
14
13
1(
1'
0E
04
0'
#270000
b11 "
1=
1?
0C
02
1@
0)
0D
03
0(
1E
14
1'
#280000
b111 "
b101 "
b100 "
0=
0:
18
0?
0@
1C
1D
0E
1A
11
04
13
12
1)
1(
0'
1%
0D
1E
0A
0F
1B
10
05
01
14
03
0(
1'
0%
0&
1$
1F
0B
00
15
1&
0$
#290000
b101 "
1=
1?
0C
02
0)
1D
13
1(
#300000
b111 "
b110 "
0=
1:
0?
1@
1C
0D
03
12
0@
1)
0(
1D
0E
1A
11
04
13
1(
0'
1%
1E
0A
0F
1B
10
05
01
14
1'
0%
0&
1$
1F
0B
00
15
1&
0$
#310000
b111 "
1=
1?
0C
02
1@
0)
0D
03
0(
0E
1A
11
04
0'
1%
0F
1B
10
05
0&
1$
#320000
b1011 #
b1010 #
b1111 "
b1011 "
b1001 "
b1000 "
0=
0:
08
16
0<
1;
0?
1E
0A
1F
15
01
14
0@
1'
0%
1&
1D
0F
05
13
1(
0&
0E
04
0'
#330000
b1001 "
1=
1C
12
1)
#340000
b1011 "
b1010 "
0=
1:
1@
0C
0D
03
02
0)
0(
1E
14
1'
#350000
b1011 "
1=
1C
12
1)
#360000
b1111 "
b1101 "
b1100 "
0=
0:
18
0@
0C
1D
0E
1A
11
04
13
02
0)
1(
0'
1%
1E
0A
1F
15
01
14
1'
0%
1&
0F
05
0&
#370000
b1101 "
1=
1C
12
1)
#380000
b1111 "
b1110 "
0=
1:
1@
0C
0D
03
02
0)
0(
0E
1A
11
04
0'
1%
1F
15
1&
#390000
b1111 "
1=
1C
12
1)
#400000
b111 "
b11 "
b1 "
b0 "
0=
0:
08
06
0@
0C
1D
1E
0A
0F
05
01
14
13
02
0)
1(
1'
0%
0&
0E
1F
0B
00
15
04
0'
1&
0$
#410000
b1 "
1=
1C
12
1)
#420000
b11 "
b10 "
0=
1:
1@
0C
0D
03
02
0)
0(
1E
14
1'
#430000
b11 "
1=
1C
12
1)
#440000
b111 "
b101 "
b100 "
0=
0:
18
0@
0C
1D
0E
1A
11
04
13
02
0)
1(
0'
1%
1E
0A
0F
1B
10
05
01
14
1'
0%
0&
1$
1F
0B
00
15
1&
0$
#450000
b101 "
1=
1C
12
1)
#460000
b111 "
b110 "
0=
1:
1@
0C
0D
03
02
0)
0(
0E
1A
11
04
0'
1%
0F
1B
10
05
0&
1$
#470000
b111 "
1=
1C
12
1)
#480000
b1011 #
b1111 "
b1011 "
b1001 "
b1000 "
0=
0:
08
16
1<
0@
1D
1E
0A
1F
15
01
14
13
1(
1'
0%
1&
0E
0F
05
04
0'
0&
#490000
b1001 "
1=
1?
0C
02
1@
0)
0D
03
0(
1E
14
1'
#500000
1!
b1011 "
b1010 "
1>
0=
1:
1D
13
1(
#510000
b1011 "
1=
1C
12
1)
#520000
b1111 "
b1101 "
b1100 "
0=
0:
18
0C
0D
0E
1A
11
04
03
02
0)
0(
0'
1%
1F
15
1&
#530000
b1101 "
1=
1C
12
1)
#540000
b1111 "
b1110 "
0=
1:
0C
1D
13
02
0)
1(
#550000
b1111 "
1=
1C
12
1)
#560000
b111 "
b11 "
b1 "
b0 "
0=
0:
08
06
0C
0D
1E
0A
0F
05
01
14
03
02
0)
0(
1'
0%
0&
1F
0B
00
15
1&
0$
#570000
b1 "
1=
1C
12
1)
#580000
b11 "
b10 "
0=
1:
0C
1D
13
02
0)
1(
#590000
b11 "
1=
1C
12
1)
#600000
b111 "
b101 "
b100 "
0=
0:
18
0C
0D
0E
1A
11
04
03
02
0)
0(
0'
1%
0F
1B
10
05
0&
1$
#610000
b101 "
1=
1C
12
1)
#620000
b111 "
b110 "
0=
1:
0C
1D
13
02
0)
1(
#630000
b111 "
1=
1C
12
1)
#640000
b1111 #
b1101 #
b1100 #
b1111 "
b1011 "
b1001 "
b1000 "
0=
0:
08
16
0<
0;
19
0?
0@
1F
15
1&
0D
1E
0A
01
14
03
0(
1'
0%
0F
05
0&
#650000
b1001 "
1=
1?
0C
02
0)
1D
13
1(
#660000
b1011 "
b1010 "
0=
1:
0?
1@
1C
0D
03
12
0@
1)
0(
1D
0E
1A
11
04
13
1(
0'
1%
1E
0A
1F
15
01
14
1'
0%
1&
0F
05
0&
#670000
b1011 "
1=
1?
0C
02
1@
0)
0D
03
0(
0E
1A
11
04
0'
1%
1F
15
1&
#680000
b1111 "
b1101 "
b1100 "
0=
0:
18
0?
0@
1C
1D
1E
14
13
12
1)
1(
1'
0D
0E
04
03
0(
0'
#690000
b1101 "
1=
1?
0C
02
0)
1D
13
1(
#700000
b1111 "
b1110 "
0=
1:
0?
1@
1C
0D
03
12
0@
1)
0(
1D
1E
14
13
1(
1'
0E
04
0'
#710000
b1111 "
1=
1?
0C
02
1@
0)
0D
03
0(
1E
14
1'
#720000
b111 "
b11 "
b1 "
b0 "
0=
0:
08
06
0?
0@
1C
1D
0E
0F
05
04
13
12
1)
1(
0'
0&
0D
1E
0A
01
14
03
0(
1'
0%
1F
0B
00
15
1&
0$
#730000
b1 "
1=
1?
0C
02
0)
1D
13
1(
#740000
b11 "
b10 "
0=
1:
0?
1@
1C
0D
03
12
0@
1)
0(
1D
0E
1A
11
04
13
1(
0'
1%
1E
0A
0F
1B
10
05
01
14
1'
0%
0&
1$
1F
0B
00
15
1&
0$
#750000
b11 "
1=
1?
0C
02
1@
0)
0D
03
0(
0E
1A
11
04
0'
1%
0F
1B
10
05
0&
1$
#760000
b111 "
b101 "
b100 "
0=
0:
18
0?
0@
1C
1D
1E
14
13
12
1)
1(
1'
0D
0E
04
03
0(
0'
#770000
b101 "
1=
1?
0C
02
0)
1D
13
1(
#780000
b111 "
b110 "
0=
1:
0?
1@
1C
0D
03
12
0@
1)
0(
1D
1E
14
13
1(
1'
0E
04
0'
#790000
b111 "
1=
1?
0C
02
1@
0)
0D
03
0(
1E
14
1'
#800000
b1101 #
b1111 "
b1011 "
b1001 "
b1000 "
0=
0:
08
16
1<
0@
1D
0E
1F
15
04
13
1(
0'
1&
1E
0A
01
14
1'
0%
0F
05
0&
#810000
b1001 "
1=
1C
12
1)
#820000
b1011 "
b1010 "
0=
1:
1@
0C
0D
03
02
0)
0(
0E
1A
11
04
0'
1%
1F
15
1&
#830000
b1011 "
1=
1C
12
1)
#840000
b1111 "
b1101 "
b1100 "
0=
0:
18
0@
0C
1D
1E
14
13
02
0)
1(
1'
0E
04
0'
#850000
b1101 "
1=
1C
12
1)
#860000
b1111 "
b1110 "
0=
1:
1@
0C
0D
03
02
0)
0(
1E
14
1'
#870000
b1111 "
1=
1C
12
1)
#880000
b111 "
b11 "
b1 "
b0 "
0=
0:
08
06
0@
0C
1D
0E
0F
05
04
13
02
0)
1(
0'
0&
1E
0A
01
14
1'
0%
1F
0B
00
15
1&
0$
#890000
b1 "
1=
1C
12
1)
#900000
b11 "
b10 "
0=
1:
1@
0C
0D
03
02
0)
0(
0E
1A
11
04
0'
1%
0F
1B
10
05
0&
1$
#910000
b11 "
1=
1C
12
1)
#920000
b111 "
b101 "
b100 "
0=
0:
18
0@
0C
1D
1E
14
13
02
0)
1(
1'
0E
04
0'
#930000
b101 "
1=
1C
12
1)
#940000
b111 "
b110 "
0=
1:
1@
0C
0D
03
02
0)
0(
1E
14
1'
#950000
b111 "
1=
1C
12
1)
#960000
b1111 #
b1110 #
b1111 "
b1011 "
b1001 "
b1000 "
0=
0:
08
16
0<
1;
0?
0E
1F
15
04
0@
0'
1&
1D
13
1(
1E
0A
01
14
1'
0%
0F
05
0&
#970000
b1001 "
1=
1?
0C
02
1@
0)
0D
03
0(
0E
1A
11
04
0'
1%
1F
15
1&
#980000
b1011 "
b1010 "
0=
1:
0?
1C
1D
13
12
1)
1(
0D
03
0(
#990000
b1011 "
1=
1?
0C
02
0)
1D
13
1(
