code/simulation/qsim/ULA.msim.vcd
$comment
	File created using the following command:
		vcd file ULA.msim.vcd -direction
$end
$date
	Sat Jul 31 00:00:11 2021
$end
$version
	ModelSim Version 2020.1
$end
$timescale
	1ps
$end

$scope module ula_vhd_vec_tst $end
$var wire 1 ! CLK $end
$var wire 1 " COUT $end
$var wire 1 # NEG $end
$var wire 1 $ OVER $end
$var wire 1 % PAUSE $end
$var wire 1 & RESULT [3] $end
$var wire 1 ' RESULT [2] $end
$var wire 1 ( RESULT [1] $end
$var wire 1 ) RESULT [0] $end
$var wire 1 * SEL [2] $end
$var wire 1 + SEL [1] $end
$var wire 1 , SEL [0] $end
$var wire 1 - X [3] $end
$var wire 1 . X [2] $end
$var wire 1 / X [1] $end
$var wire 1 0 X [0] $end
$var wire 1 1 Y [3] $end
$var wire 1 2 Y [2] $end
$var wire 1 3 Y [1] $end
$var wire 1 4 Y [0] $end
$var wire 1 5 ZER $end

$scope module i1 $end
$var wire 1 6 gnd $end
$var wire 1 7 vcc $end
$var wire 1 8 unknown $end
$var wire 1 9 devoe $end
$var wire 1 : devclrn $end
$var wire 1 ; devpor $end
$var wire 1 < ww_devoe $end
$var wire 1 = ww_devclrn $end
$var wire 1 > ww_devpor $end
$var wire 1 ? ww_X [3] $end
$var wire 1 @ ww_X [2] $end
$var wire 1 A ww_X [1] $end
$var wire 1 B ww_X [0] $end
$var wire 1 C ww_Y [3] $end
$var wire 1 D ww_Y [2] $end
$var wire 1 E ww_Y [1] $end
$var wire 1 F ww_Y [0] $end
$var wire 1 G ww_SEL [2] $end
$var wire 1 H ww_SEL [1] $end
$var wire 1 I ww_SEL [0] $end
$var wire 1 J ww_PAUSE $end
$var wire 1 K ww_CLK $end
$var wire 1 L ww_ZER $end
$var wire 1 M ww_NEG $end
$var wire 1 N ww_OVER $end
$var wire 1 O ww_COUT $end
$var wire 1 P ww_RESULT [3] $end
$var wire 1 Q ww_RESULT [2] $end
$var wire 1 R ww_RESULT [1] $end
$var wire 1 S ww_RESULT [0] $end
$var wire 1 T \COUT~input_o\ $end
$var wire 1 U \COUT~output_o\ $end
$var wire 1 V \X[0]~output_o\ $end
$var wire 1 W \X[1]~output_o\ $end
$var wire 1 X \X[2]~output_o\ $end
$var wire 1 Y \X[3]~output_o\ $end
$var wire 1 Z \Y[0]~output_o\ $end
$var wire 1 [ \Y[1]~output_o\ $end
$var wire 1 \ \Y[2]~output_o\ $end
$var wire 1 ] \Y[3]~output_o\ $end
$var wire 1 ^ \ZER~output_o\ $end
$var wire 1 _ \NEG~output_o\ $end
$var wire 1 ` \OVER~output_o\ $end
$var wire 1 a \RESULT[0]~output_o\ $end
$var wire 1 b \RESULT[1]~output_o\ $end
$var wire 1 c \RESULT[2]~output_o\ $end
$var wire 1 d \RESULT[3]~output_o\ $end
$var wire 1 e \SEL[0]~input_o\ $end
$var wire 1 f \SEL[1]~input_o\ $end
$var wire 1 g \SEL[2]~input_o\ $end
$var wire 1 h \Equal0~0_combout\ $end
$var wire 1 i \CLK~input_o\ $end
$var wire 1 j \PAUSE~input_o\ $end
$var wire 1 k \counter|A_counter|counter_process:prescaler[16]~q\ $end
$var wire 1 l \counter|A_counter|Add0~0_combout\ $end
$var wire 1 m \counter|A_counter|counter_process:prescaler[0]~q\ $end
$var wire 1 n \counter|A_counter|Add0~1\ $end
$var wire 1 o \counter|A_counter|Add0~2_combout\ $end
$var wire 1 p \counter|A_counter|counter_process:prescaler[1]~q\ $end
$var wire 1 q \counter|A_counter|Add0~3\ $end
$var wire 1 r \counter|A_counter|Add0~5\ $end
$var wire 1 s \counter|A_counter|Add0~6_combout\ $end
$var wire 1 t \counter|A_counter|counter_process:prescaler[3]~q\ $end
$var wire 1 u \counter|A_counter|Add0~7\ $end
$var wire 1 v \counter|A_counter|Add0~8_combout\ $end
$var wire 1 w \counter|A_counter|counter_process:prescaler[20]~q\ $end
$var wire 1 x \counter|A_counter|Add0~33\ $end
$var wire 1 y \counter|A_counter|Add0~34_combout\ $end
$var wire 1 z \counter|A_counter|counter_process:prescaler[17]~q\ $end
$var wire 1 { \counter|A_counter|Add0~35\ $end
$var wire 1 | \counter|A_counter|Add0~36_combout\ $end
$var wire 1 } \counter|A_counter|counter_process:prescaler[18]~q\ $end
$var wire 1 ~ \counter|A_counter|Add0~37\ $end
$var wire 1 !! \counter|A_counter|Add0~38_combout\ $end
$var wire 1 "! \counter|A_counter|counter_process:prescaler[19]~q\ $end
$var wire 1 #! \counter|A_counter|Add0~39\ $end
$var wire 1 $! \counter|A_counter|Add0~40_combout\ $end
$var wire 1 %! \counter|A_counter|counter_process:prescaler[21]~q\ $end
$var wire 1 &! \counter|A_counter|Add0~41\ $end
$var wire 1 '! \counter|A_counter|Add0~42_combout\ $end
$var wire 1 (! \counter|A_counter|counter_process:prescaler[22]~q\ $end
$var wire 1 )! \counter|A_counter|Add0~43\ $end
$var wire 1 *! \counter|A_counter|Add0~44_combout\ $end
$var wire 1 +! \counter|A_counter|Equal0~9_combout\ $end
$var wire 1 ,! \counter|A_counter|prescaler~1_combout\ $end
$var wire 1 -! \counter|A_counter|counter_process:prescaler[4]~q\ $end
$var wire 1 .! \counter|A_counter|Add0~9\ $end
$var wire 1 /! \counter|A_counter|Add0~10_combout\ $end
$var wire 1 0! \counter|A_counter|counter_process:prescaler[5]~q\ $end
$var wire 1 1! \counter|A_counter|Add0~11\ $end
$var wire 1 2! \counter|A_counter|Add0~12_combout\ $end
$var wire 1 3! \counter|A_counter|counter_process:prescaler[6]~q\ $end
$var wire 1 4! \counter|A_counter|Add0~13\ $end
$var wire 1 5! \counter|A_counter|Add0~14_combout\ $end
$var wire 1 6! \counter|A_counter|counter_process:prescaler[7]~q\ $end
$var wire 1 7! \counter|A_counter|Add0~15\ $end
$var wire 1 8! \counter|A_counter|Add0~16_combout\ $end
$var wire 1 9! \counter|A_counter|counter_process:prescaler[8]~q\ $end
$var wire 1 :! \counter|A_counter|Add0~17\ $end
$var wire 1 ;! \counter|A_counter|Add0~18_combout\ $end
$var wire 1 <! \counter|A_counter|counter_process:prescaler[9]~q\ $end
$var wire 1 =! \counter|A_counter|Add0~19\ $end
$var wire 1 >! \counter|A_counter|Add0~20_combout\ $end
$var wire 1 ?! \counter|A_counter|counter_process:prescaler[10]~q\ $end
$var wire 1 @! \counter|A_counter|Add0~21\ $end
$var wire 1 A! \counter|A_counter|Add0~22_combout\ $end
$var wire 1 B! \counter|A_counter|counter_process:prescaler[11]~q\ $end
$var wire 1 C! \counter|A_counter|Add0~23\ $end
$var wire 1 D! \counter|A_counter|Add0~24_combout\ $end
$var wire 1 E! \counter|A_counter|counter_process:prescaler[12]~q\ $end
$var wire 1 F! \counter|A_counter|Add0~25\ $end
$var wire 1 G! \counter|A_counter|Add0~26_combout\ $end
$var wire 1 H! \counter|A_counter|counter_process:prescaler[13]~q\ $end
$var wire 1 I! \counter|A_counter|Add0~27\ $end
$var wire 1 J! \counter|A_counter|Add0~28_combout\ $end
$var wire 1 K! \counter|A_counter|counter_process:prescaler[14]~q\ $end
$var wire 1 L! \counter|A_counter|Add0~29\ $end
$var wire 1 M! \counter|A_counter|Add0~30_combout\ $end
$var wire 1 N! \counter|A_counter|counter_process:prescaler[15]~q\ $end
$var wire 1 O! \counter|A_counter|Add0~31\ $end
$var wire 1 P! \counter|A_counter|Add0~32_combout\ $end
$var wire 1 Q! \counter|A_counter|Equal0~5_combout\ $end
$var wire 1 R! \counter|A_counter|prescaler~0_combout\ $end
$var wire 1 S! \counter|A_counter|counter_process:prescaler[2]~q\ $end
$var wire 1 T! \counter|A_counter|Add0~4_combout\ $end
$var wire 1 U! \counter|A_counter|Equal0~0_combout\ $end
$var wire 1 V! \counter|A_counter|Equal0~1_combout\ $end
$var wire 1 W! \counter|A_counter|Equal0~2_combout\ $end
$var wire 1 X! \counter|A_counter|Equal0~3_combout\ $end
$var wire 1 Y! \counter|A_counter|Equal0~4_combout\ $end
$var wire 1 Z! \counter|A_counter|Equal0~6_combout\ $end
$var wire 1 [! \counter|A_counter|counter_process:counter_output[0]~0_combout\ $end
$var wire 1 \! \counter|A_counter|counter_process:counter_output[0]~q\ $end
$var wire 1 ]! \counter|A_counter|Equal0~7_combout\ $end
$var wire 1 ^! \counter|A_counter|Equal0~8_combout\ $end
$var wire 1 _! \counter|A_counter|counter_process:counter_output[1]~0_combout\ $end
$var wire 1 `! \counter|A_counter|counter_process:counter_output[1]~q\ $end
$var wire 1 a! \counter|A_counter|counter_process:counter_output[1]~1_combout\ $end
$var wire 1 b! \counter|A_counter|counter_process:counter_output[2]~0_combout\ $end
$var wire 1 c! \counter|A_counter|counter_process:counter_output[2]~q\ $end
$var wire 1 d! \counter|B_counter|counter_process:prescaler[16]~q\ $end
$var wire 1 e! \counter|B_counter|Add0~0_combout\ $end
$var wire 1 f! \counter|B_counter|counter_process:prescaler[0]~q\ $end
$var wire 1 g! \counter|B_counter|Add0~1\ $end
$var wire 1 h! \counter|B_counter|Add0~3\ $end
$var wire 1 i! \counter|B_counter|Add0~4_combout\ $end
$var wire 1 j! \counter|B_counter|counter_process:prescaler[2]~q\ $end
$var wire 1 k! \counter|B_counter|Add0~5\ $end
$var wire 1 l! \counter|B_counter|Add0~6_combout\ $end
$var wire 1 m! \counter|B_counter|counter_process:prescaler[20]~q\ $end
$var wire 1 n! \counter|B_counter|Add0~33\ $end
$var wire 1 o! \counter|B_counter|Add0~34_combout\ $end
$var wire 1 p! \counter|B_counter|counter_process:prescaler[17]~q\ $end
$var wire 1 q! \counter|B_counter|Add0~35\ $end
$var wire 1 r! \counter|B_counter|Add0~36_combout\ $end
$var wire 1 s! \counter|B_counter|counter_process:prescaler[18]~q\ $end
$var wire 1 t! \counter|B_counter|Add0~37\ $end
$var wire 1 u! \counter|B_counter|Add0~38_combout\ $end
$var wire 1 v! \counter|B_counter|counter_process:prescaler[19]~q\ $end
$var wire 1 w! \counter|B_counter|Add0~39\ $end
$var wire 1 x! \counter|B_counter|Add0~40_combout\ $end
$var wire 1 y! \counter|B_counter|counter_process:prescaler[21]~q\ $end
$var wire 1 z! \counter|B_counter|Add0~41\ $end
$var wire 1 {! \counter|B_counter|Add0~42_combout\ $end
$var wire 1 |! \counter|B_counter|counter_process:prescaler[22]~q\ $end
$var wire 1 }! \counter|B_counter|Add0~43\ $end
$var wire 1 ~! \counter|B_counter|Add0~44_combout\ $end
$var wire 1 !" \counter|B_counter|Equal0~7_combout\ $end
$var wire 1 "" \counter|B_counter|prescaler~1_combout\ $end
$var wire 1 #" \counter|B_counter|counter_process:prescaler[3]~q\ $end
$var wire 1 $" \counter|B_counter|Add0~7\ $end
$var wire 1 %" \counter|B_counter|Add0~8_combout\ $end
$var wire 1 &" \counter|B_counter|counter_process:prescaler[4]~q\ $end
$var wire 1 '" \counter|B_counter|Add0~9\ $end
$var wire 1 (" \counter|B_counter|Add0~10_combout\ $end
$var wire 1 )" \counter|B_counter|counter_process:prescaler[5]~q\ $end
$var wire 1 *" \counter|B_counter|Add0~11\ $end
$var wire 1 +" \counter|B_counter|Add0~12_combout\ $end
$var wire 1 ," \counter|B_counter|counter_process:prescaler[6]~q\ $end
$var wire 1 -" \counter|B_counter|Add0~13\ $end
$var wire 1 ." \counter|B_counter|Add0~14_combout\ $end
$var wire 1 /" \counter|B_counter|counter_process:prescaler[7]~q\ $end
$var wire 1 0" \counter|B_counter|Add0~15\ $end
$var wire 1 1" \counter|B_counter|Add0~16_combout\ $end
$var wire 1 2" \counter|B_counter|counter_process:prescaler[8]~q\ $end
$var wire 1 3" \counter|B_counter|Add0~17\ $end
$var wire 1 4" \counter|B_counter|Add0~18_combout\ $end
$var wire 1 5" \counter|B_counter|counter_process:prescaler[9]~q\ $end
$var wire 1 6" \counter|B_counter|Add0~19\ $end
$var wire 1 7" \counter|B_counter|Add0~20_combout\ $end
$var wire 1 8" \counter|B_counter|counter_process:prescaler[10]~q\ $end
$var wire 1 9" \counter|B_counter|Add0~21\ $end
$var wire 1 :" \counter|B_counter|Add0~22_combout\ $end
$var wire 1 ;" \counter|B_counter|counter_process:prescaler[11]~q\ $end
$var wire 1 <" \counter|B_counter|Add0~23\ $end
$var wire 1 =" \counter|B_counter|Add0~24_combout\ $end
$var wire 1 >" \counter|B_counter|counter_process:prescaler[12]~q\ $end
$var wire 1 ?" \counter|B_counter|Add0~25\ $end
$var wire 1 @" \counter|B_counter|Add0~26_combout\ $end
$var wire 1 A" \counter|B_counter|counter_process:prescaler[13]~q\ $end
$var wire 1 B" \counter|B_counter|Add0~27\ $end
$var wire 1 C" \counter|B_counter|Add0~28_combout\ $end
$var wire 1 D" \counter|B_counter|counter_process:prescaler[14]~q\ $end
$var wire 1 E" \counter|B_counter|Add0~29\ $end
$var wire 1 F" \counter|B_counter|Add0~30_combout\ $end
$var wire 1 G" \counter|B_counter|counter_process:prescaler[15]~q\ $end
$var wire 1 H" \counter|B_counter|Add0~31\ $end
$var wire 1 I" \counter|B_counter|Add0~32_combout\ $end
$var wire 1 J" \counter|B_counter|Equal0~5_combout\ $end
$var wire 1 K" \counter|B_counter|prescaler~0_combout\ $end
$var wire 1 L" \counter|B_counter|counter_process:prescaler[1]~q\ $end
$var wire 1 M" \counter|B_counter|Add0~2_combout\ $end
$var wire 1 N" \counter|B_counter|Equal0~0_combout\ $end
$var wire 1 O" \counter|B_counter|Equal0~1_combout\ $end
$var wire 1 P" \counter|B_counter|Equal0~2_combout\ $end
$var wire 1 Q" \counter|B_counter|Equal0~3_combout\ $end
$var wire 1 R" \counter|B_counter|Equal0~4_combout\ $end
$var wire 1 S" \counter|B_counter|Equal0~6_combout\ $end
$var wire 1 T" \counter|B_counter|counter_process:counter_output[0]~0_combout\ $end
$var wire 1 U" \counter|B_counter|counter_process:counter_output[0]~q\ $end
$var wire 1 V" \counter|B_counter|Equal0~8_combout\ $end
$var wire 1 W" \counter|B_counter|counter_process:counter_output[1]~0_combout\ $end
$var wire 1 X" \counter|B_counter|counter_process:counter_output[1]~q\ $end
$var wire 1 Y" \counter|B_counter|counter_process:counter_output[1]~1_combout\ $end
$var wire 1 Z" \counter|B_counter|counter_process:counter_output[1]~2_combout\ $end
$var wire 1 [" \counter|B_counter|counter_process:counter_output[2]~0_combout\ $end
$var wire 1 \" \counter|B_counter|counter_process:counter_output[2]~q\ $end
$var wire 1 ]" \Add_C2|Full_Adder|a1|C_out~0_combout\ $end
$var wire 1 ^" \Add_C2|Full_Adder|a2|C_out~0_combout\ $end
$var wire 1 _" \counter|A_counter|counter_process:counter_output[3]~0_combout\ $end
$var wire 1 `" \counter|A_counter|counter_process:counter_output[3]~q\ $end
$var wire 1 a" \counter|B_counter|counter_process:counter_output[3]~0_combout\ $end
$var wire 1 b" \counter|B_counter|counter_process:counter_output[3]~q\ $end
$var wire 1 c" \COUT~2_combout\ $end
$var wire 1 d" \Equal0~1_combout\ $end
$var wire 1 e" \Sub_C2|Full_Adder|a1|C_out~0_combout\ $end
$var wire 1 f" \Sub_C2|Full_Adder|a2|C_out~0_combout\ $end
$var wire 1 g" \COUT~3_combout\ $end
$var wire 1 h" \COUT~4_combout\ $end
$var wire 1 i" \res_bin~2_combout\ $end
$var wire 1 j" \res_bin~3_combout\ $end
$var wire 1 k" \res_bin~13_combout\ $end
$var wire 1 l" \Equal0~2_combout\ $end
$var wire 1 m" \ZER~2_combout\ $end
$var wire 1 n" \res_bin~7_combout\ $end
$var wire 1 o" \res_bin~5_combout\ $end
$var wire 1 p" \Equal0~3_combout\ $end
$var wire 1 q" \res_bin~6_combout\ $end
$var wire 1 r" \res_bin~8_combout\ $end
$var wire 1 s" \res_bin~9_combout\ $end
$var wire 1 t" \res_bin~4_combout\ $end
$var wire 1 u" \res_bin~10_combout\ $end
$var wire 1 v" \res_bin~11_combout\ $end
$var wire 1 w" \Sub_C2|Full_Adder|a0|S~0_combout\ $end
$var wire 1 x" \res_bin~12_combout\ $end
$var wire 1 y" \ZER~3_combout\ $end
$var wire 1 z" \ZER~10_combout\ $end
$var wire 1 {" \Add_C2|Full_Adder|a1|S~combout\ $end
$var wire 1 |" \ZER~4_combout\ $end
$var wire 1 }" \Add_C2|Full_Adder|a3|S~combout\ $end
$var wire 1 ~" \ZER~5_combout\ $end
$var wire 1 !# \ZER~6_combout\ $end
$var wire 1 "# \Sub_C2|OVERFLOW~combout\ $end
$var wire 1 ## \ZER~7_combout\ $end
$var wire 1 $# \ZER~8_combout\ $end
$var wire 1 %# \ZER~9_combout\ $end
$var wire 1 &# \Sub_C2|Full_Adder|a3|S~combout\ $end
$var wire 1 '# \NEG~0_combout\ $end
$var wire 1 (# \OVER~0_combout\ $end
$var wire 1 )# \RESULT~10_combout\ $end
$var wire 1 *# \Sub_C2|Full_Adder|a1|S~combout\ $end
$var wire 1 +# \RESULT~4_combout\ $end
$var wire 1 ,# \RESULT~5_combout\ $end
$var wire 1 -# \RESULT~6_combout\ $end
$var wire 1 .# \RESULT~7_combout\ $end
$var wire 1 /# \RESULT~8_combout\ $end
$var wire 1 0# \RESULT~9_combout\ $end
$var wire 1 1# res_bin [3] $end
$var wire 1 2# res_bin [2] $end
$var wire 1 3# res_bin [1] $end
$var wire 1 4# res_bin [0] $end
$var wire 1 5# \ALT_INV_PAUSE~input_o\ $end
$var wire 1 6# \ALT_INV_OVER~0_combout\ $end
$var wire 1 7# \counter|B_counter|ALT_INV_counter_process:counter_output[3]~q\ $end
$var wire 1 8# \counter|A_counter|ALT_INV_counter_process:counter_output[3]~q\ $end
$upscope $end
$upscope $end
$enddefinitions $end
#0
$dumpvars
0!
1"
0#
1$
0%
05
06
17
x8
19
1:
1;
1<
1=
1>
0J
0K
0L
0M
1N
1O
1T
1U
0V
0W
0X
1Y
0Z
0[
0\
1]
0^
0_
1`
0a
0b
0c
0d
0e
0f
0g
1h
0i
0j
0k
1l
0m
0n
0o
0p
1q
0r
0s
0t
1u
0v
0w
0x
0y
0z
1{
0|
0}
0~
0!!
0"!
1#!
0$!
0%!
0&!
0'!
0(!
1)!
0*!
1+!
0,!
0-!
0.!
0/!
00!
11!
02!
03!
04!
05!
06!
17!
08!
09!
0:!
0;!
0<!
1=!
0>!
0?!
0@!
0A!
0B!
1C!
0D!
0E!
0F!
0G!
0H!
1I!
0J!
0K!
0L!
0M!
0N!
1O!
0P!
1Q!
0R!
0S!
0T!
0U!
0V!
1W!
1X!
0Y!
1Z!
0[!
0\!
0]!
0^!
0_!
0`!
0a!
0b!
0c!
0d!
1e!
0f!
0g!
1h!
0i!
0j!
0k!
0l!
0m!
0n!
0o!
0p!
1q!
0r!
0s!
0t!
0u!
0v!
1w!
0x!
0y!
0z!
0{!
0|!
1}!
0~!
1!"
0""
0#"
1$"
0%"
0&"
0'"
0("
0)"
1*"
0+"
0,"
0-"
0."
0/"
10"
01"
02"
03"
04"
05"
16"
07"
08"
09"
0:"
0;"
1<"
0="
0>"
0?"
0@"
0A"
1B"
0C"
0D"
0E"
0F"
0G"
1H"
0I"
1J"
0K"
0L"
0M"
0N"
1O"
1P"
1Q"
0R"
1S"
0T"
0U"
0V"
0W"
0X"
0Y"
0Z"
0["
0\"
0]"
0^"
0_"
0`"
0a"
0b"
1c"
0d"
1e"
1f"
1g"
1h"
1i"
1j"
1k"
1l"
0m"
1n"
0o"
0p"
0q"
1r"
0s"
0t"
1u"
1v"
0w"
1x"
0y"
0z"
0{"
1|"
0}"
0~"
1!#
1"#
0##
1$#
0%#
1&#
0'#
0(#
0)#
1*#
0+#
0,#
x-#
0.#
0/#
00#
15#
16#
17#
18#
0*
0+
0,
1-
0.
0/
00
11
02
03
04
0&
0'
0(
0)
1?
0@
0A
0B
1C
0D
0E
0F
0G
0H
0I
0P
0Q
0R
0S
x1#
x2#
x3#
x4#
$end
#1000
1!
1K
1i
1m
1f!
0e!
1g!
0l
1n
1o
1M"
1K"
#2000
0!
0K
0i
#3000
1!
1K
1i
0m
1p
0f!
1L"
0M"
0h!
1e!
0g!
0o
0q
1l
0n
1o
1q
1T!
1M"
1h!
1i!
0K"
0i!
1K"
1R!
0T!
0R!
#4000
0!
0K
0i
#5000
1!
1K
1i
1m
1f!
0e!
1g!
0l
1n
0o
0q
0M"
0h!
1i!
0K"
1T!
1R!
1U!
#6000
0!
0K
0i
#7000
1!
1K
1i
0m
0p
1S!
0f!
1j!
0L"
1M"
1h!
0i!
1k!
1e!
0g!
0T!
1r
1o
1q
1l
0n
0o
1T!
0r
1s
0R!
0U!
0M"
1l!
1i!
0k!
1K"
0l!
1""
0K"
0s
1R!
0""
#8000
0!
0K
0i
#9000
1!
1K
1i
1m
1f!
0e!
1g!
0l
1n
1o
1U!
1M"
1K"
0U!
#10000
0!
0K
0i
#11000
1!
1K
1i
0m
1p
0f!
1L"
0M"
0h!
1e!
0g!
0o
0q
1l
0n
1o
1q
0T!
1r
1M"
1h!
0i!
1k!
0K"
1l!
1i!
0k!
1K"
1s
0R!
1T!
0r
0s
1R!
0l!
1""
0""
#12000
0!
0K
0i
#13000
1!
1K
1i
1m
1f!
0e!
1g!
0l
1n
0o
0q
0M"
0h!
0i!
1k!
0K"
0T!
1r
1U!
1s
0R!
0U!
1l!
1""
#14000
0!
0K
0i
#15000
1!
1K
1i
0m
0p
1t
0S!
0f!
0j!
1#"
0L"
1M"
1h!
0l!
0$"
1i!
0k!
1e!
0g!
1T!
0r
0s
0u
1o
1q
1l
0n
0o
0T!
1v
1s
1u
1R!
0M"
1l!
1$"
1%"
0""
0i!
1K"
0O"
0%"
1""
0K"
0v
1,!
1V!
0R!
0,!
0V!
1O"
#16000
0!
0K
0i
#17000
1!
1K
1i
1m
1f!
0e!
1g!
0l
1n
1o
1M"
1K"
1N"
1R"
0""
0K"
1T"
1V"
#18000
0!
0K
0i
#19000
1!
1K
1i
0m
1p
0f!
0#"
1U"
0T"
1W"
1Y"
0e"
1w"
0!#
1)#
0*#
0l!
1e!
0g!
0o
0q
1l
0n
1o
1q
1T!
0M"
0N"
0x"
0|"
0f"
0$#
0&#
1Z"
1Z
0g"
0R"
1R!
0T!
1F
1a
14
0R!
1T"
0V"
0Y"
1S
1)
0Z"
0W"
#20000
0!
0K
0i
#21000
1!
1K
1i
1m
1f!
0e!
1g!
0l
1n
0o
0q
1M"
1K"
1T!
1R!
#22000
0!
0K
0i
#23000
1!
1K
1i
0m
0p
1S!
0f!
1L"
0M"
0h!
1e!
0g!
0T!
1r
1o
1q
1l
0n
0o
1T!
0r
0s
0u
0R!
1M"
1h!
1i!
0K"
0i!
1K"
1v
1s
1u
1R!
0v
1,!
1V!
0,!
0V!
#24000
0!
0K
0i
#25000
1!
1K
1i
1m
1f!
0e!
1g!
0l
1n
1o
0M"
0h!
1i!
0K"
#26000
0!
0K
0i
#27000
1!
1K
1i
0m
1p
0f!
1j!
0L"
1M"
1h!
0i!
1k!
1e!
0g!
0o
0q
1l
0n
1o
1q
0T!
1r
0M"
1l!
1i!
0k!
1K"
0l!
1""
0K"
0s
0u
0R!
1T!
0r
1s
1u
1R!
1v
0""
1,!
1V!
0v
0,!
0V!
#28000
0!
0K
0i
#29000
1!
1K
1i
1m
1f!
0e!
1g!
0l
1n
0o
0q
1M"
1K"
0T!
1r
0s
0u
0R!
1v
1,!
1V!
#30000
0!
0K
0i
#31000
1!
1K
1i
0m
0p
0t
1-!
0S!
0f!
1L"
0M"
0h!
1e!
0g!
1T!
0r
0v
1.!
1s
1u
1o
1q
1l
0n
0o
0T!
1v
0.!
1/!
0,!
0V!
0s
1R!
1M"
1h!
0i!
1k!
0K"
1l!
1i!
0k!
1K"
0/!
1,!
0R!
1V!
0l!
1""
0""
#32000
0!
0K
0i
#33000
1!
1K
1i
1m
1f!
0e!
1g!
0l
1n
1o
0M"
0h!
0i!
1k!
0K"
1l!
1""
#34000
0!
0K
0i
#35000
1!
1K
1i
0m
1p
0f!
0j!
1#"
0L"
1M"
1h!
0l!
0$"
1i!
0k!
1e!
0g!
0o
0q
1l
0n
1o
1q
1T!
0M"
1l!
1$"
1%"
0""
0i!
1K"
0O"
0%"
1""
0K"
1R!
0T!
0R!
1O"
#36000
0!
0K
0i
#37000
1!
1K
1i
1m
1f!
0e!
1g!
0l
1n
0o
0q
1M"
1K"
1N"
1T!
1R!
1U!
1R"
0""
0K"
0T"
1V"
1Y"
1Y!
0,!
0R!
1[!
1]!
1Z"
1W"
1^!
#38000
0!
0K
0i
#39000
1!
1K
1i
0m
0p
0-!
1\!
0f!
0#"
0U"
1X"
1["
0i"
1T"
0Y"
0l!
1e!
0g!
0[!
1_!
1a!
0v"
1{"
0v
1o
1q
1l
0n
0o
0T!
0U!
0V!
1,#
0M"
0N"
0Z"
0k"
1[
0Z
1V
0["
0R"
0Y!
1E
0F
1B
04
13
10
1[!
0]!
0a!
0T"
0V"
1b
0^!
1R
1(
0_!
#40000
0!
0K
0i
#41000
1!
1K
1i
1m
1f!
0e!
1g!
0l
1n
1o
1M"
1K"
#42000
0!
0K
0i
#43000
1!
1K
1i
0m
1p
0f!
1L"
0M"
0h!
1e!
0g!
0o
0q
1l
0n
1o
1q
1T!
1M"
1h!
1i!
0K"
0i!
1K"
1R!
0T!
0R!
#44000
0!
0K
0i
#45000
1!
1K
1i
1m
1f!
0e!
1g!
0l
1n
0o
0q
0M"
0h!
1i!
0K"
1T!
1R!
1U!
#46000
0!
0K
0i
#47000
1!
1K
1i
0m
0p
1S!
0f!
1j!
0L"
1M"
1h!
0i!
1k!
1e!
0g!
0T!
1r
1o
1q
1l
0n
0o
1T!
0r
1s
0R!
0U!
0M"
1l!
1i!
0k!
1K"
0l!
1""
0K"
0s
1R!
0""
#48000
0!
0K
0i
#49000
1!
1K
1i
1m
1f!
0e!
1g!
0l
1n
1o
1U!
1M"
1K"
0U!
#50000
0!
0K
0i
#51000
1!
1K
1i
0m
1p
0f!
1L"
0M"
0h!
1e!
0g!
0o
0q
1l
0n
1o
1q
0T!
1r
1M"
1h!
0i!
1k!
0K"
1l!
1i!
0k!
1K"
1s
0R!
1T!
0r
0s
1R!
0l!
1""
0""
#52000
0!
0K
0i
#53000
1!
1K
1i
1m
1f!
0e!
1g!
0l
1n
0o
0q
0M"
0h!
0i!
1k!
0K"
0T!
1r
1U!
1s
0R!
0U!
1l!
1""
#54000
0!
0K
0i
#55000
1!
1K
1i
0m
0p
1t
0S!
0f!
0j!
1#"
0L"
1M"
1h!
0l!
0$"
1i!
0k!
1e!
0g!
1T!
0r
0s
0u
1o
1q
1l
0n
0o
0T!
1v
1s
1u
1R!
0M"
1l!
1$"
1%"
0""
0i!
1K"
0O"
0%"
1""
0K"
0v
1,!
1V!
0R!
0,!
0V!
1O"
#56000
0!
0K
0i
#57000
1!
1K
1i
1m
1f!
0e!
1g!
0l
1n
1o
1M"
1K"
1N"
1R"
0""
0K"
1T"
1V"
#58000
0!
0K
0i
#59000
1!
1K
1i
0m
1p
0f!
0#"
1U"
0T"
0W"
1Y"
1]"
0w"
0{"
0)#
0l!
1e!
0g!
0o
0q
1l
0n
1o
1q
1T!
0M"
0N"
0,#
1x"
1.#
1Z"
1Z
1["
0R"
1R!
0T!
1F
0a
14
0R!
1T"
0V"
0Y"
0S
1c
0b
0)
0Z"
1W"
1Q
0R
0(
1'
0["
#60000
0!
0K
0i
#61000
1!
1K
1i
1m
1f!
0e!
1g!
0l
1n
0o
0q
1M"
1K"
1T!
1R!
#62000
0!
0K
0i
#63000
1!
1K
1i
0m
0p
1S!
0f!
1L"
0M"
0h!
1e!
0g!
0T!
1r
1o
1q
1l
0n
0o
1T!
0r
0s
0u
0R!
1M"
1h!
1i!
0K"
0i!
1K"
1v
1s
1u
1R!
0v
1,!
1V!
0,!
0V!
#64000
0!
0K
0i
#65000
1!
1K
1i
1m
1f!
0e!
1g!
0l
1n
1o
0M"
0h!
1i!
0K"
#66000
0!
0K
0i
#67000
1!
1K
1i
0m
1p
0f!
1j!
0L"
1M"
1h!
0i!
1k!
1e!
0g!
0o
0q
1l
0n
1o
1q
0T!
1r
0M"
1l!
1i!
0k!
1K"
0l!
1""
0K"
0s
0u
0R!
1T!
0r
1s
1u
1R!
1v
0""
1,!
1V!
0v
0,!
0V!
#68000
0!
0K
0i
#69000
1!
1K
1i
1m
1f!
0e!
1g!
0l
1n
0o
0q
1M"
1K"
0T!
1r
0s
0u
0R!
1v
1,!
1V!
#70000
0!
0K
0i
#71000
1!
1K
1i
0m
0p
0t
1-!
0S!
0f!
1L"
0M"
0h!
1e!
0g!
1T!
0r
0v
1.!
1s
1u
1o
1q
1l
0n
0o
0T!
1v
0.!
1/!
0,!
0V!
0s
1R!
1M"
1h!
0i!
1k!
0K"
1l!
1i!
0k!
1K"
0/!
1,!
0R!
1V!
0l!
1""
0""
#72000
0!
0K
0i
#73000
1!
1K
1i
1m
1f!
0e!
1g!
0l
1n
1o
0M"
0h!
0i!
1k!
0K"
1l!
1""
#74000
0!
0K
0i
#75000
1!
1K
1i
0m
1p
0f!
0j!
1#"
0L"
1M"
1h!
0l!
0$"
1i!
0k!
1e!
0g!
0o
0q
1l
0n
1o
1q
1T!
0M"
1l!
1$"
1%"
0""
0i!
1K"
0O"
0%"
1""
0K"
1R!
0T!
0R!
1O"
#76000
0!
0K
0i
#77000
1!
1K
1i
1m
1f!
0e!
1g!
0l
1n
0o
0q
1M"
1K"
1N"
1T!
1R!
1U!
1R"
0""
0K"
0T"
1V"
1Y"
1Y!
0,!
0R!
0[!
1]!
1a!
1Z"
0W"
1["
1^!
1_!
#78000
0!
0K
0i
